info face="Arial" size=61 bold=0 italic=0 charset="" unicode=0 stretchH=100 smooth=1 aa=1 padding=8,8,8,8 spacing=0,0
common lineHeight=87 base=57 scaleW=512 scaleH=512 pages=1 packed=0
page id=0 file="arial.png"
chars count=97
char id=0       x=425  y=322  width=47   height=55   xoffset=0    yoffset=10   xadvance=62   page=0    chnl=0 
char id=10      x=0    y=0    width=0    height=0    xoffset=-8   yoffset=0    xadvance=16   page=0    chnl=0 
char id=32      x=0    y=0    width=0    height=0    xoffset=-8   yoffset=0    xadvance=33   page=0    chnl=0 
char id=33      x=136  y=322  width=22   height=61   xoffset=-1   yoffset=4    xadvance=35   page=0    chnl=0 
char id=34      x=352  y=434  width=33   height=33   xoffset=-6   yoffset=4    xadvance=38   page=0    chnl=0 
char id=35      x=228  y=322  width=51   height=61   xoffset=-8   yoffset=4    xadvance=50   page=0    chnl=0 
char id=36      x=310  y=0    width=46   height=69   xoffset=-6   yoffset=2    xadvance=50   page=0    chnl=0 
char id=37      x=166  y=75   width=64   height=63   xoffset=-5   yoffset=3    xadvance=70   page=0    chnl=0 
char id=38      x=230  y=75   width=54   height=63   xoffset=-5   yoffset=3    xadvance=57   page=0    chnl=0 
char id=39      x=385  y=434  width=22   height=33   xoffset=-5   yoffset=4    xadvance=28   page=0    chnl=0 
char id=40      x=193  y=0    width=30   height=73   xoffset=-4   yoffset=4    xadvance=36   page=0    chnl=0 
char id=41      x=223  y=0    width=31   height=73   xoffset=-6   yoffset=4    xadvance=36   page=0    chnl=0 
char id=42      x=316  y=434  width=36   height=36   xoffset=-6   yoffset=4    xadvance=40   page=0    chnl=0 
char id=43      x=91   y=434  width=46   height=46   xoffset=-5   yoffset=12   xadvance=52   page=0    chnl=0 
char id=44      x=407  y=434  width=22   height=32   xoffset=-3   yoffset=43   xadvance=33   page=0    chnl=0 
char id=45      x=22   y=483  width=33   height=22   xoffset=-6   yoffset=30   xadvance=36   page=0    chnl=0 
char id=46      x=0    y=483  width=22   height=22   xoffset=-3   yoffset=43   xadvance=33   page=0    chnl=0 
char id=47      x=158  y=322  width=35   height=61   xoffset=-8   yoffset=4    xadvance=33   page=0    chnl=0 
char id=48      x=271  y=138  width=45   height=62   xoffset=-5   yoffset=4    xadvance=50   page=0    chnl=0 
char id=49      x=477  y=261  width=33   height=61   xoffset=-1   yoffset=4    xadvance=50   page=0    chnl=0 
char id=50      x=44   y=322  width=47   height=61   xoffset=-7   yoffset=4    xadvance=50   page=0    chnl=0 
char id=51      x=90   y=138  width=45   height=62   xoffset=-5   yoffset=4    xadvance=50   page=0    chnl=0 
char id=52      x=311  y=322  width=47   height=60   xoffset=-7   yoffset=5    xadvance=50   page=0    chnl=0 
char id=53      x=91   y=322  width=45   height=61   xoffset=-5   yoffset=5    xadvance=50   page=0    chnl=0 
char id=54      x=135  y=138  width=46   height=62   xoffset=-6   yoffset=4    xadvance=50   page=0    chnl=0 
char id=55      x=358  y=322  width=45   height=60   xoffset=-5   yoffset=5    xadvance=50   page=0    chnl=0 
char id=56      x=181  y=138  width=45   height=62   xoffset=-5   yoffset=4    xadvance=50   page=0    chnl=0 
char id=57      x=226  y=138  width=45   height=62   xoffset=-5   yoffset=4    xadvance=50   page=0    chnl=0 
char id=58      x=481  y=383  width=22   height=49   xoffset=-3   yoffset=16   xadvance=33   page=0    chnl=0 
char id=59      x=403  y=322  width=22   height=59   xoffset=-3   yoffset=16   xadvance=33   page=0    chnl=0 
char id=60      x=137  y=434  width=46   height=45   xoffset=-5   yoffset=13   xadvance=52   page=0    chnl=0 
char id=61      x=270  y=434  width=46   height=36   xoffset=-5   yoffset=17   xadvance=52   page=0    chnl=0 
char id=62      x=183  y=434  width=46   height=45   xoffset=-5   yoffset=13   xadvance=52   page=0    chnl=0 
char id=63      x=316  y=138  width=45   height=62   xoffset=-5   yoffset=3    xadvance=50   page=0    chnl=0 
char id=64      x=0    y=0    width=72   height=75   xoffset=-5   yoffset=3    xadvance=78   page=0    chnl=0 
char id=65      x=361  y=138  width=59   height=61   xoffset=-9   yoffset=4    xadvance=57   page=0    chnl=0 
char id=66      x=420  y=138  width=50   height=61   xoffset=-3   yoffset=4    xadvance=57   page=0    chnl=0 
char id=67      x=413  y=0    width=55   height=63   xoffset=-5   yoffset=3    xadvance=60   page=0    chnl=0 
char id=68      x=0    y=200  width=53   height=61   xoffset=-3   yoffset=4    xadvance=60   page=0    chnl=0 
char id=69      x=53   y=200  width=50   height=61   xoffset=-3   yoffset=4    xadvance=57   page=0    chnl=0 
char id=70      x=103  y=200  width=46   height=61   xoffset=-3   yoffset=4    xadvance=53   page=0    chnl=0 
char id=71      x=0    y=75   width=57   height=63   xoffset=-5   yoffset=3    xadvance=63   page=0    chnl=0 
char id=72      x=149  y=200  width=51   height=61   xoffset=-3   yoffset=4    xadvance=60   page=0    chnl=0 
char id=73      x=470  y=138  width=23   height=61   xoffset=-3   yoffset=4    xadvance=32   page=0    chnl=0 
char id=74      x=468  y=0    width=41   height=62   xoffset=-6   yoffset=4    xadvance=47   page=0    chnl=0 
char id=75      x=200  y=200  width=52   height=61   xoffset=-3   yoffset=4    xadvance=57   page=0    chnl=0 
char id=76      x=252  y=200  width=44   height=61   xoffset=-3   yoffset=4    xadvance=50   page=0    chnl=0 
char id=77      x=296  y=200  width=60   height=61   xoffset=-4   yoffset=4    xadvance=67   page=0    chnl=0 
char id=78      x=356  y=200  width=51   height=61   xoffset=-3   yoffset=4    xadvance=60   page=0    chnl=0 
char id=79      x=57   y=75   width=58   height=63   xoffset=-5   yoffset=3    xadvance=63   page=0    chnl=0 
char id=80      x=407  y=200  width=50   height=61   xoffset=-3   yoffset=4    xadvance=57   page=0    chnl=0 
char id=81      x=356  y=0    width=57   height=66   xoffset=-5   yoffset=3    xadvance=63   page=0    chnl=0 
char id=82      x=457  y=200  width=54   height=61   xoffset=-3   yoffset=4    xadvance=60   page=0    chnl=0 
char id=83      x=115  y=75   width=51   height=63   xoffset=-5   yoffset=3    xadvance=57   page=0    chnl=0 
char id=84      x=0    y=261  width=51   height=61   xoffset=-6   yoffset=4    xadvance=54   page=0    chnl=0 
char id=85      x=284  y=75   width=51   height=62   xoffset=-3   yoffset=4    xadvance=60   page=0    chnl=0 
char id=86      x=51   y=261  width=59   height=61   xoffset=-9   yoffset=4    xadvance=57   page=0    chnl=0 
char id=87      x=110  y=261  width=75   height=61   xoffset=-7   yoffset=4    xadvance=76   page=0    chnl=0 
char id=88      x=185  y=261  width=56   height=61   xoffset=-8   yoffset=4    xadvance=55   page=0    chnl=0 
char id=89      x=241  y=261  width=56   height=61   xoffset=-8   yoffset=4    xadvance=56   page=0    chnl=0 
char id=90      x=297  y=261  width=51   height=61   xoffset=-7   yoffset=4    xadvance=53   page=0    chnl=0 
char id=91      x=254  y=0    width=28   height=73   xoffset=-4   yoffset=4    xadvance=33   page=0    chnl=0 
char id=92      x=193  y=322  width=35   height=61   xoffset=-9   yoffset=4    xadvance=33   page=0    chnl=0 
char id=93      x=282  y=0    width=28   height=73   xoffset=-6   yoffset=4    xadvance=33   page=0    chnl=0 
char id=94      x=229  y=434  width=41   height=41   xoffset=-7   yoffset=4    xadvance=43   page=0    chnl=0 
char id=95      x=55   y=483  width=52   height=22   xoffset=-9   yoffset=55   xadvance=50   page=0    chnl=0 
char id=96      x=477  y=434  width=27   height=25   xoffset=-5   yoffset=4    xadvance=36   page=0    chnl=0 
char id=97      x=0    y=383  width=46   height=51   xoffset=-6   yoffset=15   xadvance=50   page=0    chnl=0 
char id=98      x=335  y=75   width=45   height=62   xoffset=-4   yoffset=4    xadvance=50   page=0    chnl=0 
char id=99      x=46   y=383  width=45   height=51   xoffset=-6   yoffset=15   xadvance=47   page=0    chnl=0 
char id=100     x=380  y=75   width=45   height=62   xoffset=-6   yoffset=4    xadvance=50   page=0    chnl=0 
char id=101     x=91   y=383  width=47   height=51   xoffset=-6   yoffset=15   xadvance=50   page=0    chnl=0 
char id=102     x=425  y=75   width=37   height=62   xoffset=-7   yoffset=3    xadvance=33   page=0    chnl=0 
char id=103     x=462  y=75   width=45   height=62   xoffset=-6   yoffset=15   xadvance=50   page=0    chnl=0 
char id=104     x=348  y=261  width=43   height=61   xoffset=-4   yoffset=4    xadvance=50   page=0    chnl=0 
char id=105     x=391  y=261  width=22   height=61   xoffset=-4   yoffset=4    xadvance=30   page=0    chnl=0 
char id=106     x=162  y=0    width=31   height=73   xoffset=-11  yoffset=4    xadvance=29   page=0    chnl=0 
char id=107     x=413  y=261  width=42   height=61   xoffset=-4   yoffset=4    xadvance=47   page=0    chnl=0 
char id=108     x=455  y=261  width=22   height=61   xoffset=-4   yoffset=4    xadvance=30   page=0    chnl=0 
char id=109     x=229  y=383  width=60   height=50   xoffset=-4   yoffset=15   xadvance=67   page=0    chnl=0 
char id=110     x=289  y=383  width=43   height=50   xoffset=-4   yoffset=15   xadvance=50   page=0    chnl=0 
char id=111     x=138  y=383  width=47   height=51   xoffset=-6   yoffset=15   xadvance=50   page=0    chnl=0 
char id=112     x=0    y=138  width=45   height=62   xoffset=-4   yoffset=15   xadvance=50   page=0    chnl=0 
char id=113     x=45   y=138  width=45   height=62   xoffset=-6   yoffset=15   xadvance=50   page=0    chnl=0 
char id=114     x=472  y=322  width=34   height=50   xoffset=-4   yoffset=15   xadvance=36   page=0    chnl=0 
char id=115     x=185  y=383  width=44   height=51   xoffset=-6   yoffset=15   xadvance=47   page=0    chnl=0 
char id=116     x=279  y=322  width=32   height=60   xoffset=-7   yoffset=6    xadvance=33   page=0    chnl=0 
char id=117     x=332  y=383  width=43   height=50   xoffset=-4   yoffset=16   xadvance=50   page=0    chnl=0 
char id=118     x=375  y=383  width=45   height=49   xoffset=-7   yoffset=16   xadvance=47   page=0    chnl=0 
char id=119     x=420  y=383  width=61   height=49   xoffset=-9   yoffset=16   xadvance=59   page=0    chnl=0 
char id=120     x=0    y=434  width=46   height=49   xoffset=-8   yoffset=16   xadvance=46   page=0    chnl=0 
char id=121     x=0    y=322  width=44   height=61   xoffset=-7   yoffset=16   xadvance=45   page=0    chnl=0 
char id=122     x=46   y=434  width=45   height=49   xoffset=-7   yoffset=16   xadvance=46   page=0    chnl=0 
char id=123     x=72   y=0    width=34   height=74   xoffset=-7   yoffset=3    xadvance=36   page=0    chnl=0 
char id=124     x=140  y=0    width=22   height=74   xoffset=-3   yoffset=4    xadvance=31   page=0    chnl=0 
char id=125     x=106  y=0    width=34   height=74   xoffset=-6   yoffset=3    xadvance=36   page=0    chnl=0 
char id=126     x=429  y=434  width=48   height=28   xoffset=-5   yoffset=22   xadvance=52   page=0    chnl=0 
kernings count=96
kerning first=86 second=45 amount=-3
kerning first=49 second=49 amount=-5
kerning first=89 second=59 amount=-4
kerning first=80 second=65 amount=-5
kerning first=84 second=79 amount=-1
kerning first=65 second=87 amount=-2
kerning first=82 second=84 amount=-1
kerning first=65 second=86 amount=-5
kerning first=82 second=87 amount=-1
kerning first=86 second=105 amount=-1
kerning first=87 second=97 amount=-2
kerning first=84 second=99 amount=-7
kerning first=86 second=101 amount=-3
kerning first=102 second=102 amount=-1
kerning first=84 second=105 amount=-2
kerning first=84 second=111 amount=-7
kerning first=89 second=112 amount=-5
kerning first=89 second=113 amount=-6
kerning first=84 second=114 amount=-2
kerning first=84 second=117 amount=-2
kerning first=89 second=118 amount=-3
kerning first=84 second=119 amount=-3
kerning first=84 second=121 amount=-3
kerning first=87 second=45 amount=-1
kerning first=86 second=121 amount=-2
kerning first=89 second=44 amount=-8
kerning first=118 second=46 amount=-5
kerning first=65 second=119 amount=-1
kerning first=87 second=58 amount=-1
kerning first=65 second=32 amount=-3
kerning first=86 second=44 amount=-6
kerning first=89 second=105 amount=-2
kerning first=76 second=32 amount=-2
kerning first=80 second=46 amount=-8
kerning first=70 second=44 amount=-7
kerning first=84 second=97 amount=-7
kerning first=84 second=32 amount=-1
kerning first=76 second=87 amount=-5
kerning first=84 second=58 amount=-7
kerning first=89 second=111 amount=-6
kerning first=80 second=44 amount=-8
kerning first=89 second=101 amount=-6
kerning first=84 second=115 amount=-7
kerning first=76 second=86 amount=-5
kerning first=86 second=59 amount=-2
kerning first=86 second=117 amount=-2
kerning first=86 second=111 amount=-3
kerning first=89 second=117 amount=-3
kerning first=86 second=65 amount=-5
kerning first=89 second=58 amount=-3
kerning first=65 second=84 amount=-5
kerning first=86 second=58 amount=-2
kerning first=89 second=45 amount=-6
kerning first=119 second=44 amount=-3
kerning first=121 second=46 amount=-5
kerning first=89 second=65 amount=-5
kerning first=84 second=101 amount=-7
kerning first=118 second=44 amount=-5
kerning first=32 second=84 amount=-1
kerning first=70 second=46 amount=-7
kerning first=86 second=97 amount=-5
kerning first=82 second=89 amount=-1
kerning first=80 second=32 amount=-1
kerning first=87 second=111 amount=-1
kerning first=65 second=121 amount=-1
kerning first=87 second=114 amount=-1
kerning first=87 second=101 amount=-1
kerning first=84 second=46 amount=-7
kerning first=84 second=59 amount=-7
kerning first=32 second=89 amount=-1
kerning first=70 second=65 amount=-3
kerning first=87 second=121 amount=-1
kerning first=76 second=121 amount=-2
kerning first=89 second=97 amount=-5
kerning first=84 second=65 amount=-5
kerning first=121 second=44 amount=-5
kerning first=87 second=46 amount=-3
kerning first=82 second=86 amount=-1
kerning first=114 second=44 amount=-3
kerning first=87 second=117 amount=-1
kerning first=87 second=65 amount=-2
kerning first=119 second=46 amount=-3
kerning first=87 second=44 amount=-3
kerning first=89 second=32 amount=-1
kerning first=86 second=46 amount=-6
kerning first=76 second=84 amount=-5
kerning first=84 second=44 amount=-7
kerning first=65 second=89 amount=-5
kerning first=87 second=59 amount=-1
kerning first=32 second=65 amount=-3
kerning first=89 second=46 amount=-8
kerning first=65 second=118 amount=-1
kerning first=86 second=114 amount=-2
kerning first=114 second=46 amount=-3
kerning first=76 second=89 amount=-5
kerning first=84 second=45 amount=-3
