# Blender v2.80 (sub 57) OBJ File: ''
# www.blender.org
o Sphere
v 0.000000 1.980785 -0.195090
v 0.000000 1.923880 -0.382683
v 0.000000 1.831470 -0.555570
v 0.000000 1.707107 -0.707107
v 0.000000 1.555570 -0.831470
v 0.000000 1.382683 -0.923880
v 0.000000 1.195090 -0.980785
v 0.000000 1.000000 -1.000000
v 0.000000 0.804910 -0.980785
v 0.000000 0.168530 -0.555570
v 0.038060 1.980785 -0.191342
v 0.074658 1.923880 -0.375330
v 0.108386 1.831470 -0.544895
v 0.137950 1.707107 -0.693520
v 0.162212 1.555570 -0.815493
v 0.180240 1.382683 -0.906127
v 0.191342 1.195090 -0.961940
v 0.195090 1.000000 -0.980785
v 0.191342 0.804910 -0.961940
v 0.180240 0.617317 -0.906127
v 0.162212 0.444430 -0.815493
v 0.137950 0.292893 -0.693520
v 0.108386 0.168530 -0.544895
v 0.074658 0.076120 -0.375330
v 0.038060 0.019215 -0.191341
v 0.074658 1.980785 -0.180240
v 0.146447 1.923880 -0.353553
v 0.212608 1.831470 -0.513280
v 0.270598 1.707107 -0.653281
v 0.318190 1.555570 -0.768178
v 0.353553 1.382683 -0.853553
v 0.375330 1.195090 -0.906127
v 0.382684 1.000000 -0.923879
v 0.375330 0.804910 -0.906127
v 0.353554 0.617317 -0.853553
v 0.318190 0.444430 -0.768178
v 0.270598 0.292893 -0.653281
v 0.212608 0.168530 -0.513280
v 0.146447 0.076120 -0.353553
v 0.074658 0.019215 -0.180240
v 0.108387 1.980785 -0.162212
v 0.212608 1.923880 -0.318190
v 0.308658 1.831470 -0.461940
v 0.392848 1.707107 -0.587938
v 0.461940 1.555570 -0.691342
v 0.513280 1.382683 -0.768178
v 0.544895 1.195090 -0.815493
v 0.555570 1.000000 -0.831469
v 0.544895 0.804910 -0.815493
v 0.513280 0.617317 -0.768178
v 0.461940 0.444430 -0.691342
v 0.392848 0.292893 -0.587938
v 0.308658 0.168530 -0.461940
v 0.212608 0.076120 -0.318189
v 0.108386 0.019215 -0.162211
v 0.137950 1.980785 -0.137950
v 0.270598 1.923880 -0.270598
v 0.392848 1.831470 -0.392847
v 0.500000 1.707107 -0.500000
v 0.587938 1.555570 -0.587938
v 0.653282 1.382683 -0.653281
v 0.693520 1.195090 -0.693520
v 0.707107 1.000000 -0.707107
v 0.693520 0.804910 -0.693520
v 0.653282 0.617317 -0.653281
v 0.587938 0.444430 -0.587938
v 0.500000 0.292893 -0.500000
v 0.392848 0.168530 -0.392847
v 0.270598 0.076120 -0.270598
v 0.137950 0.019215 -0.137949
v 0.162212 1.980785 -0.108386
v 0.318190 1.923880 -0.212607
v 0.461940 1.831470 -0.308658
v 0.587938 1.707107 -0.392847
v 0.691342 1.555570 -0.461940
v 0.768178 1.382683 -0.513280
v 0.815493 1.195090 -0.544895
v 0.831470 1.000000 -0.555570
v 0.815493 0.804910 -0.544895
v 0.768178 0.617317 -0.513280
v 0.691342 0.444430 -0.461940
v 0.587938 0.292893 -0.392847
v 0.461940 0.168530 -0.308658
v 0.318190 0.076120 -0.212607
v 0.162212 0.019215 -0.108386
v 0.180240 1.980785 -0.074658
v 0.353554 1.923880 -0.146446
v 0.513280 1.831470 -0.212607
v 0.653282 1.707107 -0.270598
v 0.768178 1.555570 -0.318189
v 0.853554 1.382683 -0.353553
v 0.906128 1.195090 -0.375330
v 0.923880 1.000000 -0.382683
v 0.906128 0.804910 -0.375330
v 0.853554 0.617317 -0.353553
v 0.768178 0.444430 -0.318189
v 0.653282 0.292893 -0.270598
v 0.513280 0.168530 -0.212607
v 0.353554 0.076120 -0.146446
v 0.180240 0.019215 -0.074658
v 0.191342 1.980785 -0.038060
v 0.375331 1.923880 -0.074658
v 0.544895 1.831470 -0.108386
v 0.693520 1.707107 -0.137949
v 0.815493 1.555570 -0.162211
v 0.906128 1.382683 -0.180240
v 0.961940 1.195090 -0.191341
v 0.980785 1.000000 -0.195090
v 0.961940 0.804910 -0.191341
v 0.906128 0.617317 -0.180240
v 0.815493 0.444430 -0.162211
v 0.693520 0.292893 -0.137949
v 0.544895 0.168530 -0.108386
v 0.375330 0.076120 -0.074658
v 0.191342 0.019215 -0.038060
v 0.195091 1.980785 0.000000
v 0.382684 1.923880 0.000000
v 0.555570 1.831470 0.000000
v 0.707107 1.707107 0.000000
v 0.831470 1.555570 0.000000
v 0.923880 1.382683 0.000000
v 0.980785 1.195090 0.000000
v 1.000000 1.000000 0.000000
v 0.980785 0.804910 0.000000
v 0.923880 0.617317 0.000000
v 0.831470 0.444430 0.000000
v 0.707107 0.292893 0.000000
v 0.555570 0.168530 0.000000
v 0.382684 0.076120 0.000000
v 0.195090 0.019215 0.000000
v 0.191342 1.980785 0.038061
v 0.375331 1.923880 0.074658
v 0.544895 1.831470 0.108387
v 0.693520 1.707107 0.137950
v 0.815493 1.555570 0.162212
v 0.906128 1.382683 0.180240
v 0.961940 1.195090 0.191342
v 0.980785 1.000000 0.195091
v 0.961940 0.804910 0.191342
v 0.906128 0.617317 0.180240
v 0.815493 0.444430 0.162212
v 0.693520 0.292893 0.137950
v 0.544895 0.168530 0.108387
v 0.375330 0.076120 0.074658
v 0.191342 0.019215 0.038061
v 0.180240 1.980785 0.074658
v 0.353554 1.923880 0.146447
v 0.513280 1.831470 0.212608
v 0.653282 1.707107 0.270598
v 0.768178 1.555570 0.318190
v 0.853554 1.382683 0.353554
v 0.906127 1.195090 0.375331
v 0.923880 1.000000 0.382684
v 0.906127 0.804910 0.375331
v 0.853554 0.617317 0.353554
v 0.768178 0.444430 0.318190
v 0.653282 0.292893 0.270598
v 0.513280 0.168530 0.212608
v 0.353553 0.076120 0.146447
v 0.180240 0.019215 0.074658
v 0.162212 1.980785 0.108387
v 0.318190 1.923880 0.212608
v 0.461940 1.831470 0.308659
v 0.587938 1.707107 0.392848
v 0.691342 1.555570 0.461940
v 0.768178 1.382683 0.513280
v 0.815493 1.195090 0.544895
v 0.831470 1.000000 0.555571
v 0.815493 0.804910 0.544895
v 0.768178 0.617317 0.513280
v 0.691342 0.444430 0.461940
v 0.587938 0.292893 0.392848
v 0.461940 0.168530 0.308659
v 0.318190 0.076120 0.212608
v 0.162212 0.019215 0.108387
v 0.137950 1.980785 0.137950
v 0.270598 1.923880 0.270599
v 0.392848 1.831470 0.392848
v 0.500000 1.707107 0.500000
v 0.587938 1.555570 0.587938
v 0.653282 1.382683 0.653282
v 0.693520 1.195090 0.693520
v 0.707107 1.000000 0.707107
v 0.693520 0.804910 0.693520
v 0.653282 0.617317 0.653282
v 0.587938 0.444430 0.587938
v 0.500000 0.292893 0.500000
v 0.392848 0.168530 0.392848
v 0.270598 0.076120 0.270598
v 0.137950 0.019215 0.137950
v 0.108386 1.980785 0.162212
v 0.212608 1.923880 0.318190
v 0.308658 1.831470 0.461940
v 0.392848 1.707107 0.587938
v 0.461940 1.555570 0.691342
v 0.513280 1.382683 0.768178
v 0.544895 1.195090 0.815493
v 0.555570 1.000000 0.831470
v 0.544895 0.804910 0.815493
v 0.513280 0.617317 0.768178
v 0.461940 0.444430 0.691342
v 0.392848 0.292893 0.587938
v 0.308658 0.168530 0.461940
v 0.212608 0.076120 0.318190
v 0.108386 0.019215 0.162212
v 0.000000 0.000000 0.000000
v 0.074658 1.980785 0.180240
v 0.146447 1.923880 0.353554
v 0.212608 1.831470 0.513280
v 0.270598 1.707107 0.653282
v 0.318190 1.555570 0.768178
v 0.353553 1.382683 0.853554
v 0.375330 1.195090 0.906128
v 0.382683 1.000000 0.923880
v 0.375330 0.804910 0.906128
v 0.353553 0.617317 0.853554
v 0.318190 0.444430 0.768178
v 0.270598 0.292893 0.653282
v 0.212608 0.168530 0.513280
v 0.146447 0.076120 0.353554
v 0.074658 0.019215 0.180240
v 0.038060 1.980785 0.191342
v 0.074658 1.923880 0.375331
v 0.108386 1.831470 0.544896
v 0.137950 1.707107 0.693520
v 0.162212 1.555570 0.815493
v 0.180240 1.382683 0.906128
v 0.191342 1.195090 0.961940
v 0.195090 1.000000 0.980786
v 0.191342 0.804910 0.961940
v 0.180240 0.617317 0.906128
v 0.162212 0.444430 0.815493
v 0.137950 0.292893 0.693520
v 0.108386 0.168530 0.544895
v 0.074658 0.076120 0.375331
v 0.038060 0.019215 0.191342
v -0.000000 1.980785 0.195091
v 0.000000 1.923880 0.382684
v 0.000000 1.831470 0.555571
v -0.000000 1.707107 0.707107
v -0.000000 1.555570 0.831470
v 0.000000 1.382683 0.923880
v -0.000000 1.195090 0.980785
v -0.000000 1.000000 1.000000
v -0.000000 0.804910 0.980785
v 0.000000 0.617317 0.923880
v -0.000000 0.444430 0.831470
v -0.000000 0.292893 0.707107
v -0.000000 0.168530 0.555570
v 0.000000 0.076120 0.382684
v 0.000000 0.019215 0.195091
v -0.038060 1.980785 0.191342
v -0.074658 1.923880 0.375331
v -0.108386 1.831470 0.544896
v -0.137950 1.707107 0.693520
v -0.162212 1.555570 0.815493
v -0.180240 1.382683 0.906128
v -0.191342 1.195090 0.961940
v -0.195090 1.000000 0.980786
v -0.191342 0.804910 0.961940
v -0.180240 0.617317 0.906128
v -0.162212 0.444430 0.815493
v -0.137950 0.292893 0.693520
v -0.108386 0.168530 0.544895
v -0.074658 0.076120 0.375331
v -0.038060 0.019215 0.191342
v -0.074658 1.980785 0.180240
v -0.146447 1.923880 0.353554
v -0.212608 1.831470 0.513280
v -0.270598 1.707107 0.653282
v -0.318190 1.555570 0.768178
v -0.353553 1.382683 0.853554
v -0.375330 1.195090 0.906127
v -0.382684 1.000000 0.923880
v -0.375330 0.804910 0.906127
v -0.353553 0.617317 0.853554
v -0.318190 0.444430 0.768178
v -0.270598 0.292893 0.653282
v -0.212608 0.168530 0.513280
v -0.146447 0.076120 0.353554
v -0.074658 0.019215 0.180240
v -0.108386 1.980785 0.162212
v -0.212608 1.923880 0.318190
v -0.308658 1.831470 0.461940
v -0.392847 1.707107 0.587938
v -0.461940 1.555570 0.691342
v -0.513280 1.382683 0.768178
v -0.544895 1.195090 0.815493
v -0.555570 1.000000 0.831470
v -0.544895 0.804910 0.815493
v -0.513280 0.617317 0.768178
v -0.461940 0.444430 0.691342
v -0.392847 0.292893 0.587938
v -0.308658 0.168530 0.461940
v -0.212607 0.076120 0.318190
v -0.108386 0.019215 0.162212
v -0.000000 2.000000 0.000001
v -0.137950 1.980785 0.137950
v -0.270598 1.923880 0.270598
v -0.392848 1.831470 0.392848
v -0.500000 1.707107 0.500000
v -0.587938 1.555570 0.587938
v -0.653281 1.382683 0.653282
v -0.693520 1.195090 0.693520
v -0.707107 1.000000 0.707107
v -0.693520 0.804910 0.693520
v -0.653281 0.617317 0.653282
v -0.587938 0.444430 0.587938
v -0.500000 0.292893 0.500000
v -0.392847 0.168530 0.392848
v -0.270598 0.076120 0.270598
v -0.137950 0.019215 0.137950
v -0.162212 1.980785 0.108387
v -0.318190 1.923880 0.212608
v -0.461940 1.831470 0.308659
v -0.587938 1.707107 0.392848
v -0.691342 1.555570 0.461940
v -0.768178 1.382683 0.513280
v -0.815493 1.195090 0.544895
v -0.831470 1.000000 0.555570
v -0.815493 0.804910 0.544895
v -0.768178 0.617317 0.513280
v -0.691342 0.444430 0.461940
v -0.587938 0.292893 0.392848
v -0.461940 0.168530 0.308658
v -0.318190 0.076120 0.212608
v -0.162212 0.019215 0.108387
v -0.180240 1.980785 0.074658
v -0.353553 1.923880 0.146447
v -0.513280 1.831470 0.212608
v -0.653281 1.707107 0.270598
v -0.768177 1.555570 0.318190
v -0.853553 1.382683 0.353554
v -0.906127 1.195090 0.375330
v -0.923880 1.000000 0.382684
v -0.906127 0.804910 0.375330
v -0.853553 0.617317 0.353554
v -0.768177 0.444430 0.318190
v -0.653281 0.292893 0.270598
v -0.513280 0.168530 0.212608
v -0.353553 0.076120 0.146447
v -0.180240 0.019215 0.074658
v -0.191342 1.980785 0.038061
v -0.375330 1.923880 0.074658
v -0.544895 1.831470 0.108387
v -0.693520 1.707107 0.137950
v -0.815493 1.555570 0.162212
v -0.906127 1.382683 0.180240
v -0.961939 1.195090 0.191342
v -0.980785 1.000000 0.195090
v -0.961939 0.804910 0.191342
v -0.906127 0.617317 0.180240
v -0.815493 0.444430 0.162212
v -0.693520 0.292893 0.137950
v -0.544895 0.168530 0.108387
v -0.375330 0.076120 0.074658
v -0.191342 0.019215 0.038061
v -0.195090 1.980785 0.000000
v -0.382683 1.923880 0.000000
v -0.555570 1.831470 0.000000
v -0.707107 1.707107 0.000000
v -0.831469 1.555570 0.000000
v -0.923879 1.382683 0.000000
v -0.980785 1.195090 0.000000
v -1.000000 1.000000 0.000000
v -0.980785 0.804910 0.000000
v -0.923879 0.617317 0.000000
v -0.831469 0.444430 0.000000
v -0.707107 0.292893 0.000000
v -0.555570 0.168530 0.000000
v -0.382683 0.076120 0.000000
v -0.195090 0.019215 0.000000
v -0.191342 1.980785 -0.038060
v -0.375330 1.923880 -0.074658
v -0.544895 1.831470 -0.108386
v -0.693520 1.707107 -0.137949
v -0.815493 1.555570 -0.162211
v -0.906127 1.382683 -0.180240
v -0.961939 1.195090 -0.191342
v -0.980785 1.000000 -0.195090
v -0.961939 0.804910 -0.191342
v -0.906127 0.617317 -0.180240
v -0.815493 0.444430 -0.162211
v -0.693520 0.292893 -0.137949
v -0.544895 0.168530 -0.108386
v -0.375330 0.076120 -0.074658
v -0.191342 0.019215 -0.038060
v -0.180240 1.980785 -0.074658
v -0.353553 1.923880 -0.146446
v -0.513280 1.831470 -0.212607
v -0.653281 1.707107 -0.270598
v -0.768177 1.555570 -0.318189
v -0.853553 1.382683 -0.353553
v -0.906127 1.195090 -0.375330
v -0.923879 1.000000 -0.382683
v -0.906127 0.804910 -0.375330
v -0.853553 0.617317 -0.353553
v -0.768177 0.444430 -0.318189
v -0.653281 0.292893 -0.270598
v -0.513280 0.168530 -0.212607
v -0.353553 0.076120 -0.146446
v -0.180240 0.019215 -0.074657
v -0.162212 1.980785 -0.108386
v -0.318190 1.923880 -0.212607
v -0.461940 1.831470 -0.308658
v -0.587938 1.707107 -0.392847
v -0.691341 1.555570 -0.461939
v -0.768178 1.382683 -0.513280
v -0.815493 1.195090 -0.544895
v -0.831469 1.000000 -0.555570
v -0.815493 0.804910 -0.544895
v -0.768178 0.617317 -0.513280
v -0.691341 0.444430 -0.461939
v -0.587938 0.292893 -0.392847
v -0.461940 0.168530 -0.308658
v -0.318189 0.076120 -0.212607
v -0.162212 0.019215 -0.108386
v -0.137950 1.980785 -0.137949
v -0.270598 1.923880 -0.270598
v -0.392847 1.831470 -0.392847
v -0.500000 1.707107 -0.500000
v -0.587937 1.555570 -0.587937
v -0.653281 1.382683 -0.653281
v -0.693519 1.195090 -0.693519
v -0.707106 1.000000 -0.707106
v -0.693519 0.804910 -0.693519
v -0.653281 0.617317 -0.653281
v -0.587937 0.444430 -0.587937
v -0.500000 0.292893 -0.500000
v -0.392847 0.168530 -0.392847
v -0.270598 0.076120 -0.270598
v -0.137950 0.019215 -0.137949
v -0.108386 1.980785 -0.162211
v -0.212607 1.923880 -0.318189
v -0.308658 1.831470 -0.461939
v -0.392847 1.707107 -0.587937
v -0.461939 1.555570 -0.691341
v -0.513280 1.382683 -0.768177
v -0.544895 1.195090 -0.815492
v -0.555570 1.000000 -0.831469
v -0.544895 0.804910 -0.815492
v -0.513280 0.617317 -0.768177
v -0.461939 0.444430 -0.691341
v -0.392847 0.292893 -0.587937
v -0.308658 0.168530 -0.461939
v -0.212607 0.076120 -0.318189
v -0.108386 0.019215 -0.162211
v -0.074658 1.980785 -0.180240
v -0.146447 1.923880 -0.353553
v -0.212607 1.831470 -0.513280
v -0.270598 1.707107 -0.653281
v -0.318189 1.555570 -0.768177
v -0.353553 1.382683 -0.853553
v -0.375330 1.195090 -0.906127
v -0.382683 1.000000 -0.923879
v -0.375330 0.804910 -0.906127
v -0.353553 0.617317 -0.853553
v -0.318189 0.444430 -0.768177
v -0.270598 0.292893 -0.653281
v -0.212607 0.168530 -0.513279
v -0.146446 0.076120 -0.353553
v -0.074658 0.019215 -0.180240
v -0.038060 1.980785 -0.191342
v -0.074658 1.923880 -0.375330
v -0.108386 1.831470 -0.544895
v -0.137950 1.707107 -0.693520
v -0.162211 1.555570 -0.815492
v -0.180240 1.382683 -0.906127
v -0.191341 1.195090 -0.961939
v -0.195090 1.000000 -0.980785
v -0.191341 0.804910 -0.961939
v -0.180240 0.617317 -0.906127
v -0.162211 0.444430 -0.815492
v -0.137950 0.292893 -0.693520
v -0.108386 0.168530 -0.544895
v -0.074658 0.076120 -0.375330
v -0.038060 0.019215 -0.191341
v 0.000000 0.617317 -0.923879
v 0.000000 0.444430 -0.831469
v 0.000000 0.292893 -0.707106
v 0.000000 0.076120 -0.382683
v 0.000000 0.019215 -0.195090
vt 0.107457 0.984812
vt 0.094835 0.927886
vt 0.123009 0.945936
vt 0.239869 0.575078
vt 0.221676 0.514871
vt 0.249851 0.532921
vt 0.107080 0.878357
vt 0.140210 0.899581
vt 0.664234 0.789185
vt 0.702490 0.771916
vt 0.697766 0.804868
vt 0.121587 0.823948
vt 0.158399 0.847531
vt 0.739277 0.795646
vt 0.736023 0.818344
vt 0.137796 0.766750
vt 0.176876 0.791785
vt 0.779193 0.817525
vt 0.777534 0.829096
vt 0.155086 0.708960
vt 0.194931 0.734486
vt 0.793781 0.342920
vt 0.836951 0.338736
vt 0.795440 0.354491
vt 0.820704 0.836710
vt 0.172792 0.652799
vt 0.211871 0.677835
vt 0.755524 0.366211
vt 0.752270 0.343513
vt 0.190233 0.600426
vt 0.227045 0.624009
vt 0.714013 0.340492
vt 0.718737 0.373444
vt 0.206739 0.553854
vt 0.134120 0.629362
vt 0.153805 0.578349
vt 0.728005 0.404484
vt 0.173955 0.533985
vt 0.085320 0.970631
vt 0.066954 0.910989
vt 0.193795 0.497974
vt 0.074296 0.858488
vt 0.670247 0.747245
vt 0.711758 0.740876
vt 0.085159 0.801871
vt 0.745660 0.774266
vt 0.099125 0.743313
vt 0.782447 0.806625
vt 0.115657 0.685064
vt 0.798694 0.365391
vt 0.761908 0.387591
vt 0.754928 0.755023
vt 0.050515 0.782147
vt 0.062347 0.722374
vt 0.787171 0.796815
vt 0.078159 0.663715
vt 0.803419 0.375201
vt 0.097342 0.608424
vt 0.771175 0.406834
vt 0.119161 0.558626
vt 0.741459 0.432419
vt 0.142776 0.516234
vt 0.063414 0.957355
vt 0.040439 0.895893
vt 0.682042 0.707738
vt 0.677790 0.634319
vt 0.699165 0.672183
vt 0.043118 0.840738
vt 0.725212 0.712940
vt 0.087633 0.542014
vt 0.114402 0.501284
vt 0.737207 0.481212
vt 0.715413 0.450975
vt 0.720960 0.641946
vt 0.014743 0.825787
vt 0.742335 0.689183
vt 0.018987 0.765536
vt 0.766723 0.738659
vt 0.028877 0.704739
vt 0.793184 0.788473
vt 0.044033 0.645734
vt 0.809432 0.383543
vt 0.063872 0.590789
vt 0.782970 0.423198
vt 0.758583 0.456177
vt 0.800255 0.781918
vt 0.000000 0.691085
vt 0.014590 0.631813
vt 0.816502 0.390098
vt 0.034995 0.577135
vt 0.796839 0.436055
vt 0.060432 0.529152
vt 0.778718 0.474842
vt 0.703417 0.598764
vt 0.723866 0.530255
vt 0.733552 0.570828
vt 0.082988 0.017198
vt 0.076154 0.073599
vt 0.054840 0.062028
vt 0.746587 0.618189
vt 0.031050 0.113931
vt 0.056113 0.127536
vt 0.762471 0.670517
vt 0.040381 0.186029
vt 0.012533 0.170911
vt 0.780592 0.725802
vt 0.029563 0.246828
vt 0.000000 0.230779
vt 0.099734 0.026289
vt 0.101385 0.083497
vt 0.767036 0.551586
vt 0.775063 0.601825
vt 0.085782 0.139175
vt 0.784844 0.657660
vt 0.073348 0.198961
vt 0.796003 0.716946
vt 0.064560 0.260557
vt 0.808111 0.777403
vt 0.059757 0.321596
vt 0.024075 0.307598
vt 0.824359 0.394613
vt 0.059124 0.379732
vt 0.024127 0.366003
vt 0.812250 0.444911
vt 0.062684 0.432731
vt 0.029717 0.419799
vt 0.801091 0.487700
vt 0.761071 0.508874
vt 0.099609 0.332691
vt 0.832699 0.396914
vt 0.816452 0.775102
vt 0.098210 0.390614
vt 0.828611 0.449426
vt 0.099502 0.442982
vt 0.824843 0.494254
vt 0.800568 0.497974
vt 0.802582 0.541776
vt 0.141699 0.040230
vt 0.129565 0.091343
vt 0.805293 0.593482
vt 0.118918 0.148401
vt 0.808595 0.651105
vt 0.110166 0.209212
vt 0.812363 0.712431
vt 0.103646 0.271439
vt 0.836115 0.593482
vt 0.154246 0.154858
vt 0.832812 0.651105
vt 0.149421 0.216387
vt 0.829044 0.712431
vt 0.145320 0.279057
vt 0.824956 0.775102
vt 0.142099 0.340458
vt 0.841203 0.396914
vt 0.139883 0.398232
vt 0.845291 0.449426
vt 0.138758 0.450157
vt 0.849059 0.494254
vt 0.840839 0.497974
vt 0.838825 0.541776
vt 0.159610 0.096834
vt 0.849543 0.394613
vt 0.833296 0.777403
vt 0.182542 0.402291
vt 0.861651 0.444911
vt 0.178941 0.453981
vt 0.171113 0.000000
vt 0.189469 0.046844
vt 0.165305 0.044545
vt 0.138765 0.494240
vt 0.174929 0.497681
vt 0.190365 0.099761
vt 0.866344 0.601825
vt 0.190411 0.158300
vt 0.856563 0.657660
vt 0.189605 0.220211
vt 0.845404 0.716946
vt 0.187978 0.283116
vt 0.185594 0.344597
vt 0.226021 0.158592
vt 0.878937 0.670517
vt 0.229173 0.220536
vt 0.860815 0.725802
vt 0.229983 0.283461
vt 0.841152 0.781918
vt 0.228421 0.344949
vt 0.857400 0.390098
vt 0.224547 0.402636
vt 0.877062 0.436055
vt 0.218509 0.454306
vt 0.872811 0.487700
vt 0.895184 0.474842
vt 0.210539 0.497974
vt 0.220649 0.100010
vt 0.874371 0.551586
vt 0.894820 0.618189
vt 0.268937 0.341501
vt 0.264284 0.399254
vt 0.890932 0.423198
vt 0.255940 0.451121
vt 0.915319 0.456176
vt 0.907855 0.570828
vt 0.951025 0.561295
vt 0.937990 0.598764
vt 0.213263 0.047040
vt 0.249297 0.097572
vt 0.920448 0.641946
vt 0.259708 0.155725
vt 0.899072 0.689183
vt 0.266604 0.217351
vt 0.874685 0.738659
vt 0.269720 0.280079
vt 0.848223 0.788473
vt 0.864470 0.383543
vt 0.942242 0.672183
vt 0.916196 0.712940
vt 0.300461 0.210777
vt 0.886480 0.755023
vt 0.305662 0.273100
vt 0.854236 0.796815
vt 0.305583 0.334385
vt 0.870483 0.375201
vt 0.300226 0.392275
vt 0.902727 0.406834
vt 0.289797 0.444547
vt 0.932443 0.432419
vt 0.963618 0.634319
vt 0.235772 0.045124
vt 0.275210 0.092540
vt 0.290178 0.149809
vt 0.637026 0.609448
vt 0.586071 0.579804
vt 0.610930 0.559315
vt 0.945897 0.404484
vt 0.580368 0.516380
vt 0.557996 0.534820
vt 0.273559 0.035332
vt 0.297391 0.085108
vt 0.959366 0.707738
vt 0.316260 0.141070
vt 0.929650 0.740876
vt 0.329441 0.201067
vt 0.895747 0.774266
vt 0.336427 0.262792
vt 0.858960 0.806625
vt 0.336951 0.323875
vt 0.875208 0.365391
vt 0.630747 0.687030
vt 0.610636 0.631199
vt 0.911994 0.387591
vt 0.902130 0.795646
vt 0.645632 0.745150
vt 0.625029 0.825931
vt 0.614115 0.769147
vt 0.862215 0.817525
vt 0.598614 0.711497
vt 0.878462 0.354491
vt 0.579120 0.655197
vt 0.918378 0.366210
vt 0.556383 0.602409
vt 0.955164 0.373444
vt 0.531277 0.555164
vt 0.987408 0.375913
vt 0.975613 0.415419
vt 0.504767 0.515275
vt 0.527489 0.497974
vt 0.336951 0.129845
vt 0.971161 0.747245
vt 0.938917 0.771916
vt 0.657654 0.859323
vt 0.654717 0.803326
vt 0.959889 0.340491
vt 0.523007 0.626261
vt 0.501240 0.576630
vt 0.993421 0.333973
vt 0.479222 0.533530
vt 0.631609 0.928290
vt 0.600899 0.901133
vt 0.630936 0.879667
vt 0.943641 0.804868
vt 0.591653 0.849783
vt 0.905385 0.818344
vt 0.578684 0.794468
vt 0.863874 0.829096
vt 0.562488 0.737314
vt 0.880121 0.342920
vt 0.543688 0.680517
vt 0.921632 0.343513
vt 0.555872 0.873965
vt 0.540698 0.820139
vt 0.905385 0.841487
vt 0.863874 0.840894
vt 0.523758 0.763488
vt 0.880121 0.331122
vt 0.505703 0.706189
vt 0.921632 0.320370
vt 0.487226 0.650443
vt 0.959889 0.306894
vt 0.469037 0.598393
vt 0.993421 0.291211
vt 0.451836 0.552039
vt 0.606064 0.946545
vt 0.568696 0.922896
vt 0.977174 0.831947
vt 0.943641 0.838466
vt 0.450414 0.674026
vt 0.435907 0.619617
vt 0.955164 0.273942
vt 0.987408 0.249271
vt 0.423662 0.570088
vt 0.550503 0.983103
vt 0.535566 0.944120
vt 0.414147 0.527343
vt 0.436284 0.513162
vt 0.519060 0.897548
vt 0.902130 0.864184
vt 0.501619 0.845175
vt 0.862215 0.852465
vt 0.483913 0.789014
vt 0.878462 0.319551
vt 0.466623 0.731224
vt 0.918378 0.297672
vt 0.895747 0.885565
vt 0.858960 0.863365
vt 0.444484 0.812911
vt 0.875208 0.308651
vt 0.427952 0.754661
vt 0.911994 0.276291
vt 0.413986 0.696103
vt 0.945897 0.242902
vt 0.403123 0.639486
vt 0.975613 0.209764
vt 0.395781 0.586985
vt 0.522623 1.000000
vt 0.502782 0.963989
vt 0.392242 0.540619
vt 0.482632 0.919625
vt 0.929650 0.902458
vt 0.462947 0.868612
vt 0.958489 0.174209
vt 0.369266 0.602081
vt 1.000000 0.178153
vt 0.979865 0.136345
vt 0.371409 0.552480
vt 0.447988 0.939349
vt 0.886480 0.904808
vt 0.426170 0.889550
vt 0.854236 0.873175
vt 0.406986 0.834259
vt 0.870483 0.298841
vt 0.391174 0.775600
vt 0.902727 0.257049
vt 0.379342 0.715827
vt 0.932443 0.214966
vt 0.371945 0.657237
vt 0.392699 0.907185
vt 0.372860 0.852240
vt 0.864470 0.290499
vt 0.848223 0.881517
vt 0.357704 0.793235
vt 0.890932 0.240685
vt 0.347814 0.732438
vt 0.915319 0.191209
vt 0.343570 0.672187
vt 0.936695 0.143972
vt 0.345135 0.614795
vt 0.954237 0.100790
vt 0.942242 0.948949
vt 0.899072 0.954150
vt 0.916196 0.930393
vt 0.471603 0.981740
vt 0.416460 0.955960
vt 0.874685 0.921172
vt 0.368001 0.384043
vt 0.413105 0.424375
vt 0.391791 0.435945
vt 0.911067 0.120215
vt 0.924102 0.072854
vt 0.436685 0.471685
vt 0.419939 0.480776
vt 0.933788 0.032281
vt 0.967272 0.063321
vt 0.878937 0.972816
vt 0.860815 0.934029
vt 0.389259 0.968822
vt 0.363823 0.920839
vt 0.841152 0.888072
vt 0.343417 0.866161
vt 0.857400 0.283944
vt 0.328827 0.806889
vt 0.877062 0.227828
vt 0.336951 0.267195
vt 0.377332 0.311945
vt 0.349484 0.327063
vt 0.895184 0.172543
vt 0.393064 0.370438
vt 0.833296 0.892587
vt 0.361026 0.190376
vt 0.401511 0.237417
vt 0.366514 0.251146
vt 0.861651 0.218972
vt 0.410298 0.299013
vt 0.872810 0.159686
vt 0.422733 0.358799
vt 0.882591 0.103851
vt 0.438336 0.414477
vt 0.890618 0.053612
vt 0.456509 0.463908
vt 0.896583 0.010900
vt 0.856563 0.985674
vt 0.845404 0.942885
vt 0.361078 0.131971
vt 0.399635 0.065243
vt 0.396075 0.118242
vt 0.396708 0.176378
vt 0.849543 0.279429
vt 0.478650 0.457744
vt 0.857086 0.000000
vt 0.832812 0.992228
vt 0.829044 0.947400
vt 0.436453 0.054992
vt 0.435161 0.107360
vt 0.824956 0.894888
vt 0.436560 0.165282
vt 0.841203 0.277128
vt 0.440597 0.226535
vt 0.845291 0.214457
vt 0.447117 0.288762
vt 0.849059 0.153131
vt 0.455868 0.349573
vt 0.852362 0.095508
vt 0.466516 0.406631
vt 0.855072 0.043802
vt 0.832699 0.277128
vt 0.828610 0.214457
vt 0.486372 0.281587
vt 0.824843 0.153131
vt 0.491197 0.343116
vt 0.821540 0.095508
vt 0.496560 0.401140
vt 0.818829 0.043802
vt 0.502255 0.453429
vt 0.816815 0.000000
vt 0.808595 0.992228
vt 0.812363 0.947400
vt 0.475708 0.047817
vt 0.476834 0.099742
vt 0.816452 0.894888
vt 0.479050 0.157516
vt 0.482271 0.218917
vt 0.475716 0.003734
vt 0.515892 0.043993
vt 0.508064 0.497974
vt 0.526420 0.451129
vt 0.524708 0.496390
vt 0.519493 0.095683
vt 0.808111 0.892587
vt 0.522544 0.153377
vt 0.824359 0.279429
vt 0.524929 0.214858
vt 0.812250 0.218972
vt 0.526556 0.277763
vt 0.801091 0.159686
vt 0.527362 0.339674
vt 0.791310 0.103851
vt 0.527316 0.398213
vt 0.783283 0.053612
vt 0.566124 0.277438
vt 0.778718 0.172543
vt 0.562972 0.339382
vt 0.762834 0.120215
vt 0.557600 0.397964
vt 0.749799 0.072854
vt 0.550214 0.450934
vt 0.511880 0.000293
vt 0.555460 0.043668
vt 0.796003 0.942885
vt 0.762471 0.972816
vt 0.780592 0.934029
vt 0.561498 0.095338
vt 0.800255 0.888072
vt 0.565372 0.153025
vt 0.816502 0.283944
vt 0.566934 0.214513
vt 0.796839 0.227828
vt 0.742335 0.954150
vt 0.766723 0.921172
vt 0.592891 0.046853
vt 0.601235 0.098720
vt 0.793184 0.881517
vt 0.605888 0.156473
vt 0.809432 0.290499
vt 0.606671 0.217895
vt 0.782970 0.240685
vt 0.603555 0.280623
vt 0.758583 0.191209
vt 0.596659 0.342249
vt 0.737207 0.143972
vt 0.586248 0.400402
vt 0.719664 0.100790
vt 0.572723 0.452850
vt 0.706629 0.063321
vt 0.740113 0.032281
vt 0.741459 0.214966
vt 0.637411 0.287197
vt 0.627129 0.348165
vt 0.715413 0.174209
vt 0.612161 0.405434
vt 0.694037 0.136345
vt 0.593082 0.456803
vt 0.678153 0.102828
vt 0.754928 0.904808
vt 0.626747 0.053427
vt 0.637176 0.105699
vt 0.787171 0.873175
vt 0.642533 0.163589
vt 0.803419 0.298841
vt 0.642613 0.224874
vt 0.771175 0.257049
vt 0.308199 0.888526
vt 0.257244 0.918170
vt 0.281809 0.866775
vt 0.782447 0.863365
vt 0.328827 0.833122
vt 0.301920 0.810944
vt 0.798694 0.308651
vt 0.673378 0.235182
vt 0.761908 0.276292
vt 0.666392 0.296907
vt 0.728005 0.242902
vt 0.653211 0.356904
vt 0.698289 0.209764
vt 0.634341 0.412865
vt 0.673902 0.178153
vt 0.610509 0.462642
vt 0.251541 0.981594
vt 0.282103 0.938659
vt 0.725212 0.930393
vt 0.745660 0.885565
vt 0.328827 0.638651
vt 0.296202 0.672043
vt 0.302109 0.618307
vt 0.718738 0.273942
vt 0.686494 0.249271
vt 0.651938 0.422412
vt 0.229168 0.963154
vt 0.175940 0.982699
vt 0.202450 0.942810
vt 0.682042 0.913394
vt 0.702490 0.871418
vt 0.711758 0.902458
vt 0.227556 0.895565
vt 0.739277 0.864185
vt 0.250293 0.842777
vt 0.779193 0.852465
vt 0.269786 0.786477
vt 0.795440 0.319551
vt 0.285288 0.728827
vt 0.316805 0.752824
vt 0.755524 0.297672
vt 0.325890 0.694648
vt 0.736023 0.841487
vt 0.777534 0.840894
vt 0.233661 0.760660
vt 0.793781 0.331122
vt 0.249856 0.703506
vt 0.752270 0.320370
vt 0.262826 0.648191
vt 0.714013 0.306894
vt 0.272071 0.596841
vt 0.680481 0.291211
vt 0.277237 0.551429
vt 0.302782 0.569684
vt 0.150395 0.964444
vt 0.172413 0.921345
vt 0.670247 0.873887
vt 0.697766 0.838466
vt 0.194180 0.871713
vt 0.214861 0.817457
vt 0.664234 0.831947
vt 0.680481 0.333973
vt 0.042582 0.945494
vt 0.657654 0.676127
vt 0.016308 0.883179
vt 0.690382 0.561295
vt 0.119558 0.034066
vt 0.187757 0.001584
vt 0.917541 0.530255
vt 0.979501 0.600802
vt 0.256131 0.041171
vt 0.983753 0.676127
vt 0.657654 0.664852
vt 0.314987 0.075562
vt 0.977174 0.789185
vt 0.578678 0.965053
vt 0.938917 0.871418
vt 0.920448 0.979186
vt 0.443229 0.996690
vt 0.366668 0.078175
vt 0.547490 0.000000
vt 0.784844 0.985674
vt 0.673902 0.174099
vt 0.673902 0.368129
vt 0.198662 1.000000
vn 0.0000 0.8286 -0.5598
vn 0.1385 0.7040 -0.6965
vn 0.0000 0.7040 -0.7101
vn 0.0000 -0.5528 -0.8333
vn 0.1385 -0.7040 -0.6965
vn 0.0000 -0.7040 -0.7101
vn 0.1626 0.5528 -0.8173
vn 0.0000 0.5528 -0.8333
vn 0.1092 -0.8286 -0.5490
vn 0.0000 -0.8286 -0.5598
vn 0.1804 0.3805 -0.9070
vn 0.0000 0.3805 -0.9247
vn 0.0757 -0.9217 -0.3804
vn 0.0000 -0.9217 -0.3879
vn 0.1914 0.1939 -0.9622
vn 0.0000 0.1939 -0.9810
vn 0.0392 -0.9796 -0.1971
vn 0.0000 -0.9796 -0.2010
vn 0.1951 0.0000 -0.9808
vn 0.0000 0.0000 -1.0000
vn 0.0000 0.9796 -0.2010
vn 0.0000 1.0000 0.0000
vn 0.0392 0.9796 -0.1971
vn 0.0000 -1.0000 0.0000
vn 0.1914 -0.1939 -0.9622
vn 0.0000 -0.1939 -0.9810
vn 0.0757 0.9217 -0.3804
vn 0.0000 0.9217 -0.3879
vn 0.1804 -0.3805 -0.9070
vn 0.0000 -0.3805 -0.9247
vn 0.1092 0.8286 -0.5490
vn 0.1626 -0.5528 -0.8173
vn 0.3754 -0.1939 -0.9063
vn 0.3539 -0.3805 -0.8544
vn 0.2142 0.8286 -0.5171
vn 0.3189 -0.5528 -0.7699
vn 0.2717 0.7040 -0.6561
vn 0.2717 -0.7040 -0.6561
vn 0.3189 0.5528 -0.7699
vn 0.2142 -0.8286 -0.5171
vn 0.3539 0.3805 -0.8544
vn 0.1484 -0.9217 -0.3583
vn 0.3754 0.1939 -0.9063
vn 0.0769 -0.9796 -0.1856
vn 0.3827 0.0000 -0.9239
vn 0.0769 0.9796 -0.1856
vn 0.1484 0.9217 -0.3583
vn 0.2155 -0.9217 -0.3225
vn 0.5137 0.3805 -0.7689
vn 0.5450 0.1939 -0.8157
vn 0.1116 -0.9796 -0.1671
vn 0.5556 0.0000 -0.8314
vn 0.1116 0.9796 -0.1671
vn 0.5450 -0.1939 -0.8157
vn 0.2155 0.9217 -0.3225
vn 0.5137 -0.3805 -0.7689
vn 0.3110 0.8286 -0.4654
vn 0.4630 -0.5528 -0.6929
vn 0.3945 0.7040 -0.5904
vn 0.3945 -0.7040 -0.5904
vn 0.4630 0.5528 -0.6929
vn 0.3110 -0.8286 -0.4654
vn 0.6539 -0.3805 -0.6539
vn 0.5893 -0.5528 -0.5893
vn 0.5021 0.7040 -0.5021
vn 0.5021 -0.7040 -0.5021
vn 0.5893 0.5528 -0.5893
vn 0.3958 -0.8286 -0.3958
vn 0.6539 0.3805 -0.6539
vn 0.2743 -0.9217 -0.2743
vn 0.6937 0.1939 -0.6937
vn 0.1421 -0.9796 -0.1421
vn 0.7071 0.0000 -0.7071
vn 0.1421 0.9796 -0.1421
vn 0.6937 -0.1939 -0.6937
vn 0.2743 0.9217 -0.2743
vn 0.3958 0.8286 -0.3958
vn 0.1671 -0.9796 -0.1116
vn 0.8157 0.1939 -0.5450
vn 0.8314 0.0000 -0.5556
vn 0.1671 0.9796 -0.1116
vn 0.8157 -0.1939 -0.5450
vn 0.3225 0.9217 -0.2155
vn 0.7689 -0.3805 -0.5137
vn 0.4654 0.8286 -0.3110
vn 0.6929 -0.5528 -0.4630
vn 0.5904 0.7040 -0.3945
vn 0.5904 -0.7040 -0.3945
vn 0.6929 0.5528 -0.4630
vn 0.4654 -0.8286 -0.3110
vn 0.7689 0.3805 -0.5137
vn 0.3225 -0.9217 -0.2155
vn 0.6561 0.7040 -0.2717
vn 0.7699 -0.5528 -0.3189
vn 0.6561 -0.7040 -0.2717
vn 0.7699 0.5528 -0.3189
vn 0.5171 -0.8286 -0.2142
vn 0.8544 0.3805 -0.3539
vn 0.3583 -0.9217 -0.1484
vn 0.9063 0.1939 -0.3754
vn 0.1856 -0.9796 -0.0769
vn 0.9239 0.0000 -0.3827
vn 0.1856 0.9796 -0.0769
vn 0.9063 -0.1939 -0.3754
vn 0.3583 0.9217 -0.1484
vn 0.8544 -0.3805 -0.3539
vn 0.5171 0.8286 -0.2142
vn 0.9808 0.0000 -0.1951
vn 0.1971 0.9796 -0.0392
vn 0.1971 -0.9796 -0.0392
vn 0.9622 -0.1939 -0.1914
vn 0.3804 0.9217 -0.0757
vn 0.9070 -0.3805 -0.1804
vn 0.5490 0.8286 -0.1092
vn 0.8173 -0.5528 -0.1626
vn 0.6965 0.7040 -0.1385
vn 0.6965 -0.7040 -0.1385
vn 0.8173 0.5528 -0.1626
vn 0.5490 -0.8286 -0.1092
vn 0.9070 0.3805 -0.1804
vn 0.3804 -0.9217 -0.0757
vn 0.9622 0.1939 -0.1914
vn 0.7101 -0.7040 0.0000
vn 0.8333 0.5528 0.0000
vn 0.5598 -0.8286 0.0000
vn 0.9247 0.3805 0.0000
vn 0.3879 -0.9217 0.0000
vn 0.9810 0.1939 0.0000
vn 0.2010 -0.9796 0.0000
vn 1.0000 0.0000 0.0000
vn 0.2010 0.9796 0.0000
vn 0.9810 -0.1939 0.0000
vn 0.3879 0.9217 0.0000
vn 0.9247 -0.3805 0.0000
vn 0.5598 0.8286 0.0000
vn 0.8333 -0.5528 0.0000
vn 0.7101 0.7040 0.0000
vn 0.1971 0.9796 0.0392
vn 0.1971 -0.9796 0.0392
vn 0.9622 -0.1939 0.1914
vn 0.3804 0.9217 0.0757
vn 0.9070 -0.3805 0.1804
vn 0.5490 0.8286 0.1092
vn 0.8173 -0.5528 0.1626
vn 0.6965 0.7040 0.1385
vn 0.6965 -0.7040 0.1385
vn 0.8173 0.5528 0.1626
vn 0.5490 -0.8286 0.1092
vn 0.9070 0.3805 0.1804
vn 0.3804 -0.9217 0.0757
vn 0.9622 0.1939 0.1914
vn 0.9808 0.0000 0.1951
vn 0.7699 0.5528 0.3189
vn 0.5171 -0.8286 0.2142
vn 0.8544 0.3805 0.3539
vn 0.3583 -0.9217 0.1484
vn 0.9063 0.1939 0.3754
vn 0.1856 -0.9796 0.0769
vn 0.9239 0.0000 0.3827
vn 0.1856 0.9796 0.0769
vn 0.9063 -0.1939 0.3754
vn 0.3583 0.9217 0.1484
vn 0.8544 -0.3805 0.3539
vn 0.5171 0.8286 0.2142
vn 0.7699 -0.5528 0.3189
vn 0.6561 0.7040 0.2717
vn 0.6561 -0.7040 0.2717
vn 0.8314 0.0000 0.5556
vn 0.8157 -0.1939 0.5450
vn 0.3225 0.9217 0.2155
vn 0.7689 -0.3805 0.5137
vn 0.4654 0.8286 0.3110
vn 0.6929 -0.5528 0.4630
vn 0.5904 0.7040 0.3945
vn 0.5904 -0.7040 0.3945
vn 0.6929 0.5528 0.4630
vn 0.4654 -0.8286 0.3110
vn 0.7689 0.3805 0.5137
vn 0.3225 -0.9217 0.2155
vn 0.8157 0.1939 0.5450
vn 0.1671 -0.9796 0.1116
vn 0.1671 0.9796 0.1116
vn 0.5021 -0.7040 0.5021
vn 0.3958 -0.8286 0.3958
vn 0.6539 0.3805 0.6539
vn 0.2743 -0.9217 0.2743
vn 0.6937 0.1939 0.6937
vn 0.1421 -0.9796 0.1421
vn 0.7071 0.0000 0.7071
vn 0.1421 0.9796 0.1421
vn 0.6937 -0.1939 0.6937
vn 0.2743 0.9217 0.2743
vn 0.6539 -0.3805 0.6539
vn 0.3958 0.8286 0.3958
vn 0.5893 -0.5528 0.5893
vn 0.5021 0.7040 0.5021
vn 0.5893 0.5528 0.5893
vn 0.5137 -0.3805 0.7689
vn 0.3110 0.8286 0.4654
vn 0.4630 -0.5528 0.6929
vn 0.3945 0.7040 0.5904
vn 0.3945 -0.7040 0.5904
vn 0.4630 0.5528 0.6929
vn 0.3110 -0.8286 0.4654
vn 0.5137 0.3805 0.7689
vn 0.2155 -0.9217 0.3225
vn 0.5450 0.1939 0.8157
vn 0.1116 -0.9796 0.1671
vn 0.5556 0.0000 0.8314
vn 0.1116 0.9796 0.1671
vn 0.5450 -0.1939 0.8157
vn 0.2155 0.9217 0.3225
vn 0.1484 -0.9217 0.3583
vn 0.3539 0.3805 0.8544
vn 0.3754 0.1939 0.9063
vn 0.0769 -0.9796 0.1856
vn 0.3827 0.0000 0.9239
vn 0.0769 0.9796 0.1856
vn 0.3754 -0.1939 0.9063
vn 0.1484 0.9217 0.3583
vn 0.3539 -0.3805 0.8544
vn 0.2142 0.8286 0.5171
vn 0.3189 -0.5528 0.7699
vn 0.2717 0.7040 0.6561
vn 0.2717 -0.7040 0.6561
vn 0.3189 0.5528 0.7699
vn 0.2142 -0.8286 0.5171
vn 0.1092 0.8286 0.5490
vn 0.1804 -0.3805 0.9070
vn 0.1626 -0.5528 0.8173
vn 0.1385 0.7040 0.6965
vn 0.1385 -0.7040 0.6965
vn 0.1626 0.5528 0.8173
vn 0.1092 -0.8286 0.5490
vn 0.1804 0.3805 0.9070
vn 0.0757 -0.9217 0.3804
vn 0.1914 0.1939 0.9622
vn 0.0392 -0.9796 0.1971
vn 0.1951 0.0000 0.9808
vn 0.0392 0.9796 0.1971
vn 0.1914 -0.1939 0.9622
vn 0.0757 0.9217 0.3804
vn 0.0000 0.3805 0.9247
vn 0.0000 0.1939 0.9810
vn 0.0000 -0.9217 0.3879
vn 0.0000 -0.9796 0.2010
vn 0.0000 0.0000 1.0000
vn 0.0000 0.9796 0.2010
vn 0.0000 -0.1939 0.9810
vn 0.0000 0.9217 0.3879
vn 0.0000 -0.3805 0.9247
vn 0.0000 0.8286 0.5598
vn 0.0000 -0.5528 0.8333
vn 0.0000 0.7040 0.7101
vn 0.0000 -0.7040 0.7101
vn 0.0000 0.5528 0.8333
vn 0.0000 -0.8286 0.5598
vn -0.1804 -0.3805 0.9070
vn -0.1626 -0.5528 0.8173
vn -0.1092 0.8286 0.5490
vn -0.1385 0.7040 0.6965
vn -0.1385 -0.7040 0.6965
vn -0.1626 0.5528 0.8173
vn -0.1092 -0.8286 0.5490
vn -0.1804 0.3805 0.9070
vn -0.0757 -0.9217 0.3804
vn -0.1914 0.1939 0.9622
vn -0.0392 -0.9796 0.1971
vn -0.1951 0.0000 0.9808
vn -0.0392 0.9796 0.1971
vn -0.1914 -0.1939 0.9622
vn -0.0757 0.9217 0.3804
vn -0.1484 -0.9217 0.3583
vn -0.0769 -0.9796 0.1856
vn -0.3827 0.0000 0.9239
vn -0.0769 0.9796 0.1856
vn -0.3754 -0.1939 0.9063
vn -0.1484 0.9217 0.3583
vn -0.3539 -0.3805 0.8544
vn -0.2142 0.8286 0.5171
vn -0.3189 -0.5528 0.7699
vn -0.2717 0.7040 0.6561
vn -0.2717 -0.7040 0.6561
vn -0.3189 0.5528 0.7699
vn -0.2142 -0.8286 0.5171
vn -0.3539 0.3805 0.8544
vn -0.3754 0.1939 0.9063
vn -0.3945 0.7040 0.5904
vn -0.3945 -0.7040 0.5904
vn -0.4630 0.5528 0.6929
vn -0.3110 -0.8286 0.4654
vn -0.5137 0.3805 0.7689
vn -0.2155 -0.9217 0.3225
vn -0.5450 0.1939 0.8157
vn -0.1116 -0.9796 0.1671
vn -0.5556 0.0000 0.8314
vn -0.1116 0.9796 0.1671
vn -0.5450 -0.1939 0.8157
vn -0.2155 0.9217 0.3225
vn -0.5137 -0.3805 0.7689
vn -0.3110 0.8286 0.4654
vn -0.4630 -0.5528 0.6929
vn -0.6937 0.1939 0.6937
vn -0.7071 0.0000 0.7071
vn -0.1421 0.9796 0.1421
vn -0.1421 -0.9796 0.1421
vn -0.6937 -0.1939 0.6937
vn -0.2743 0.9217 0.2743
vn -0.6539 -0.3805 0.6539
vn -0.3958 0.8286 0.3958
vn -0.5893 -0.5528 0.5893
vn -0.5021 0.7040 0.5021
vn -0.5021 -0.7040 0.5021
vn -0.5893 0.5528 0.5893
vn -0.3958 -0.8286 0.3958
vn -0.6539 0.3805 0.6539
vn -0.2743 -0.9217 0.2743
vn -0.5904 -0.7040 0.3945
vn -0.5904 0.7040 0.3945
vn -0.6929 0.5528 0.4630
vn -0.4654 -0.8286 0.3110
vn -0.7689 0.3805 0.5137
vn -0.3225 -0.9217 0.2155
vn -0.8157 0.1939 0.5450
vn -0.1671 -0.9796 0.1116
vn -0.8314 0.0000 0.5556
vn -0.1671 0.9796 0.1116
vn -0.8157 -0.1939 0.5450
vn -0.3225 0.9217 0.2155
vn -0.7689 -0.3805 0.5137
vn -0.4654 0.8286 0.3110
vn -0.6929 -0.5528 0.4630
vn -0.1856 -0.9796 0.0769
vn -0.9063 -0.1939 0.3754
vn -0.3583 0.9217 0.1484
vn -0.8544 -0.3805 0.3539
vn -0.5171 0.8286 0.2142
vn -0.7699 -0.5528 0.3189
vn -0.6561 0.7040 0.2717
vn -0.6561 -0.7040 0.2717
vn -0.7699 0.5528 0.3189
vn -0.5171 -0.8286 0.2142
vn -0.8544 0.3805 0.3539
vn -0.3583 -0.9217 0.1484
vn -0.9063 0.1939 0.3754
vn -0.9239 0.0000 0.3827
vn -0.1856 0.9796 0.0769
vn -0.5490 -0.8286 0.1092
vn -0.9070 0.3805 0.1804
vn -0.3804 -0.9217 0.0757
vn -0.9622 0.1939 0.1914
vn -0.1971 -0.9796 0.0392
vn -0.9808 0.0000 0.1951
vn -0.1971 0.9796 0.0392
vn -0.9622 -0.1939 0.1914
vn -0.3804 0.9217 0.0757
vn -0.9070 -0.3805 0.1804
vn -0.5490 0.8286 0.1092
vn -0.8173 -0.5528 0.1626
vn -0.6965 0.7040 0.1385
vn -0.6965 -0.7040 0.1385
vn -0.8173 0.5528 0.1626
vn -0.2010 0.9796 0.0000
vn -0.3879 0.9217 0.0000
vn -0.9247 -0.3805 0.0000
vn -0.5598 0.8286 0.0000
vn -0.8333 -0.5528 0.0000
vn -0.7101 0.7040 0.0000
vn -0.7101 -0.7040 0.0000
vn -0.8333 0.5528 0.0000
vn -0.5598 -0.8286 0.0000
vn -0.9247 0.3805 0.0000
vn -0.3879 -0.9217 0.0000
vn -0.9810 0.1939 0.0000
vn -0.2010 -0.9796 0.0000
vn -1.0000 0.0000 0.0000
vn -0.9810 -0.1939 0.0000
vn -0.9070 0.3805 -0.1804
vn -0.5490 -0.8286 -0.1092
vn -0.3804 -0.9217 -0.0757
vn -0.9622 0.1939 -0.1914
vn -0.1971 -0.9796 -0.0392
vn -0.9808 0.0000 -0.1951
vn -0.1971 0.9796 -0.0392
vn -0.9622 -0.1939 -0.1914
vn -0.3804 0.9217 -0.0757
vn -0.9070 -0.3805 -0.1804
vn -0.5490 0.8286 -0.1092
vn -0.8173 -0.5528 -0.1626
vn -0.6965 0.7040 -0.1385
vn -0.6965 -0.7040 -0.1385
vn -0.8173 0.5528 -0.1626
vn -0.8544 -0.3805 -0.3539
vn -0.5171 0.8286 -0.2142
vn -0.7699 -0.5528 -0.3189
vn -0.6561 0.7040 -0.2717
vn -0.6561 -0.7040 -0.2717
vn -0.7699 0.5528 -0.3189
vn -0.5171 -0.8286 -0.2142
vn -0.8544 0.3805 -0.3539
vn -0.3583 -0.9217 -0.1484
vn -0.9063 0.1939 -0.3754
vn -0.1856 -0.9796 -0.0769
vn -0.9239 0.0000 -0.3827
vn -0.1856 0.9796 -0.0769
vn -0.9063 -0.1939 -0.3754
vn -0.3583 0.9217 -0.1484
vn -0.4654 -0.8286 -0.3110
vn -0.3225 -0.9217 -0.2155
vn -0.7689 0.3805 -0.5137
vn -0.8157 0.1939 -0.5450
vn -0.1671 -0.9796 -0.1116
vn -0.8314 0.0000 -0.5556
vn -0.1671 0.9796 -0.1116
vn -0.8157 -0.1939 -0.5450
vn -0.3225 0.9217 -0.2155
vn -0.7689 -0.3805 -0.5137
vn -0.4654 0.8286 -0.3110
vn -0.6929 -0.5528 -0.4630
vn -0.5904 0.7040 -0.3945
vn -0.5904 -0.7040 -0.3945
vn -0.6929 0.5528 -0.4630
vn -0.3958 0.8286 -0.3958
vn -0.6539 -0.3805 -0.6539
vn -0.5893 -0.5528 -0.5893
vn -0.5021 0.7040 -0.5021
vn -0.5021 -0.7040 -0.5021
vn -0.5893 0.5528 -0.5893
vn -0.3958 -0.8286 -0.3958
vn -0.6539 0.3805 -0.6539
vn -0.2743 -0.9217 -0.2743
vn -0.6937 0.1939 -0.6937
vn -0.1421 -0.9796 -0.1421
vn -0.7071 0.0000 -0.7071
vn -0.1421 0.9796 -0.1421
vn -0.6937 -0.1939 -0.6937
vn -0.2743 0.9217 -0.2743
vn -0.5137 0.3805 -0.7689
vn -0.5450 0.1939 -0.8157
vn -0.1116 -0.9796 -0.1671
vn -0.5556 0.0000 -0.8314
vn -0.1116 0.9796 -0.1671
vn -0.5450 -0.1939 -0.8157
vn -0.2155 0.9217 -0.3225
vn -0.5137 -0.3805 -0.7689
vn -0.3110 0.8286 -0.4654
vn -0.4630 -0.5528 -0.6929
vn -0.3945 0.7040 -0.5904
vn -0.3945 -0.7040 -0.5904
vn -0.4630 0.5528 -0.6929
vn -0.3110 -0.8286 -0.4654
vn -0.2155 -0.9217 -0.3225
vn -0.3539 -0.3805 -0.8544
vn -0.3189 -0.5528 -0.7699
vn -0.2142 0.8286 -0.5171
vn -0.2717 0.7040 -0.6561
vn -0.2717 -0.7040 -0.6561
vn -0.3189 0.5528 -0.7699
vn -0.2142 -0.8286 -0.5171
vn -0.3539 0.3805 -0.8544
vn -0.1484 -0.9217 -0.3583
vn -0.3754 0.1939 -0.9063
vn -0.0769 -0.9796 -0.1856
vn -0.3827 0.0000 -0.9239
vn -0.0769 0.9796 -0.1856
vn -0.3754 -0.1939 -0.9063
vn -0.1484 0.9217 -0.3583
vn -0.0757 -0.9217 -0.3804
vn -0.0392 -0.9796 -0.1971
vn -0.1951 0.0000 -0.9808
vn -0.0392 0.9796 -0.1971
vn -0.1914 -0.1939 -0.9622
vn -0.0757 0.9217 -0.3804
vn -0.1804 -0.3805 -0.9070
vn -0.1092 0.8286 -0.5490
vn -0.1626 -0.5528 -0.8173
vn -0.1385 0.7040 -0.6965
vn -0.1385 -0.7040 -0.6965
vn -0.1626 0.5528 -0.8173
vn -0.1092 -0.8286 -0.5490
vn -0.1804 0.3805 -0.9070
vn -0.1914 0.1939 -0.9622
s 1
f 3/1/1 14/2/2 4/3/3
f 479/4/4 22/5/5 480/6/6
f 4/3/3 15/7/7 5/8/8
f 480/9/6 23/10/9 10/11/10
f 5/8/8 16/12/11 6/13/12
f 10/11/10 24/14/13 481/15/14
f 6/13/12 17/16/15 7/17/16
f 481/15/14 25/18/17 482/19/18
f 7/17/16 18/20/19 8/21/20
f 1/22/21 297/23/22 11/24/23
f 206/25/24 482/19/18 25/18/17
f 8/21/20 19/26/25 9/27/26
f 1/22/21 12/28/27 2/29/28
f 9/27/26 20/30/29 478/31/30
f 3/32/1 12/28/27 13/33/31
f 478/31/30 21/34/32 479/4/4
f 20/30/29 34/35/33 35/36/34
f 12/28/27 28/37/35 13/33/31
f 20/30/29 36/38/36 21/34/32
f 13/39/31 29/40/37 14/2/2
f 22/5/5 36/38/36 37/41/38
f 14/2/2 30/42/39 15/7/7
f 22/43/5 38/44/40 23/10/9
f 15/7/7 31/45/41 16/12/11
f 23/10/9 39/46/42 24/14/13
f 16/12/11 32/47/43 17/16/15
f 24/14/13 40/48/44 25/18/17
f 17/16/15 33/49/45 18/20/19
f 11/24/23 297/23/22 26/50/46
f 206/25/24 25/18/17 40/48/44
f 19/26/25 33/49/45 34/35/33
f 11/24/23 27/51/47 12/28/27
f 38/44/40 54/52/48 39/46/42
f 32/47/43 46/53/49 47/54/50
f 39/46/42 55/55/51 40/48/44
f 32/47/43 48/56/52 33/49/45
f 26/50/46 297/23/22 41/57/53
f 206/25/24 40/48/44 55/55/51
f 33/49/45 49/58/54 34/35/33
f 26/50/46 42/59/55 27/51/47
f 34/35/33 50/60/56 35/36/34
f 27/51/47 43/61/57 28/37/35
f 36/38/36 50/60/56 51/62/58
f 28/63/35 44/64/59 29/40/37
f 37/65/38 51/66/58 52/67/60
f 29/40/37 45/68/61 30/42/39
f 37/65/38 53/69/62 38/44/40
f 30/42/39 46/53/49 31/45/41
f 51/62/58 65/70/63 66/71/64
f 43/61/57 59/72/65 44/73/59
f 51/66/58 67/74/66 52/67/60
f 44/64/59 60/75/67 45/68/61
f 52/67/60 68/76/68 53/69/62
f 45/68/61 61/77/69 46/53/49
f 53/69/62 69/78/70 54/52/48
f 46/53/49 62/79/71 47/54/50
f 54/52/48 70/80/72 55/55/51
f 48/56/52 62/79/71 63/81/73
f 41/57/53 297/23/22 56/82/74
f 206/25/24 55/55/51 70/80/72
f 48/56/52 64/83/75 49/58/54
f 41/57/53 57/84/76 42/59/55
f 49/58/54 65/70/63 50/60/56
f 42/59/55 58/85/77 43/61/57
f 69/78/70 85/86/78 70/80/72
f 63/81/73 77/87/79 78/88/80
f 56/82/74 297/23/22 71/89/81
f 206/25/24 70/80/72 85/86/78
f 63/81/73 79/90/82 64/83/75
f 56/82/74 72/91/83 57/84/76
f 64/83/75 80/92/84 65/70/63
f 57/84/76 73/93/85 58/85/77
f 66/94/64 80/95/84 81/96/86
f 58/97/77 74/98/87 59/99/65
f 66/94/64 82/100/88 67/74/66
f 60/101/67 74/98/87 75/102/89
f 68/76/68 82/100/88 83/103/90
f 60/101/67 76/104/91 61/105/69
f 69/78/70 83/103/90 84/106/92
f 61/105/69 77/107/79 62/108/71
f 73/109/85 89/110/93 74/98/87
f 82/100/88 96/111/94 97/112/95
f 75/102/89 89/110/93 90/113/96
f 82/100/88 98/114/97 83/103/90
f 75/102/89 91/115/98 76/104/91
f 84/106/92 98/114/97 99/116/99
f 77/107/79 91/115/98 92/117/100
f 84/106/92 100/118/101 85/86/78
f 77/107/79 93/119/102 78/120/80
f 71/89/81 297/23/22 86/121/103
f 206/25/24 85/86/78 100/118/101
f 78/120/80 94/122/104 79/123/82
f 71/89/81 87/124/105 72/91/83
f 79/123/82 95/125/106 80/126/84
f 72/91/83 88/127/107 73/93/85
f 81/96/86 95/128/106 96/111/94
f 92/117/100 108/129/108 93/119/102
f 86/121/103 297/23/22 101/130/109
f 206/25/24 100/118/101 115/131/110
f 93/119/102 109/132/111 94/122/104
f 86/121/103 102/133/112 87/124/105
f 94/122/104 110/134/113 95/125/106
f 87/124/105 103/135/114 88/127/107
f 96/111/94 110/136/113 111/137/115
f 89/110/93 103/138/114 104/139/116
f 97/112/95 111/137/115 112/140/117
f 89/110/93 105/141/118 90/113/96
f 97/112/95 113/142/119 98/114/97
f 90/113/96 106/143/120 91/115/98
f 98/114/97 114/144/121 99/116/99
f 92/117/100 106/143/120 107/145/122
f 100/118/101 114/144/121 115/131/110
f 111/137/115 127/146/123 112/140/117
f 104/139/116 120/147/124 105/141/118
f 113/142/119 127/146/123 128/148/125
f 105/141/118 121/149/126 106/143/120
f 114/144/121 128/148/125 129/150/127
f 107/145/122 121/149/126 122/151/128
f 115/131/110 129/150/127 130/152/129
f 107/145/122 123/153/130 108/129/108
f 101/130/109 297/23/22 116/154/131
f 206/25/24 115/131/110 130/152/129
f 109/132/111 123/153/130 124/155/132
f 101/130/109 117/156/133 102/133/112
f 109/132/111 125/157/134 110/134/113
f 102/133/112 118/158/135 103/135/114
f 111/137/115 125/159/134 126/160/136
f 103/138/114 119/161/137 104/139/116
f 116/154/131 297/23/22 131/162/138
f 206/25/24 130/152/129 145/163/139
f 123/153/130 139/164/140 124/155/132
f 117/156/133 131/162/138 132/165/141
f 124/155/132 140/166/142 125/157/134
f 117/167/133 133/168/143 118/169/135
f 126/170/136 140/166/142 141/171/144
f 118/169/135 134/172/145 119/161/137
f 126/160/136 142/173/146 127/146/123
f 120/147/124 134/172/145 135/174/147
f 128/148/125 142/173/146 143/175/148
f 120/147/124 136/176/149 121/149/126
f 128/148/125 144/177/150 129/150/127
f 122/151/128 136/176/149 137/178/151
f 130/152/129 144/177/150 145/163/139
f 122/151/128 138/179/152 123/153/130
f 134/172/145 150/180/153 135/174/147
f 142/173/146 158/181/154 143/175/148
f 135/174/147 151/182/155 136/176/149
f 144/177/150 158/181/154 159/183/156
f 137/178/151 151/182/155 152/184/157
f 144/177/150 160/185/158 145/163/139
f 137/178/151 153/186/159 138/179/152
f 131/162/138 297/23/22 146/187/160
f 206/25/24 145/163/139 160/185/158
f 138/179/152 154/188/161 139/164/140
f 131/162/138 147/189/162 132/165/141
f 139/164/140 155/190/163 140/166/142
f 133/191/143 147/189/162 148/192/164
f 141/171/144 155/190/163 156/193/165
f 133/168/143 149/194/166 134/172/145
f 141/195/144 157/196/167 142/173/146
f 154/188/161 168/197/168 169/198/169
f 146/187/160 162/199/170 147/189/162
f 154/188/161 170/200/171 155/190/163
f 147/189/162 163/201/172 148/192/164
f 156/202/165 170/203/171 171/204/173
f 148/205/164 164/206/174 149/194/166
f 156/202/165 172/207/175 157/196/167
f 150/180/153 164/206/174 165/208/176
f 158/181/154 172/207/175 173/209/177
f 150/180/153 166/210/178 151/182/155
f 158/181/154 174/211/179 159/183/156
f 152/184/157 166/210/178 167/212/180
f 159/183/156 175/213/181 160/185/158
f 152/184/157 168/197/168 153/186/159
f 146/187/160 297/23/22 161/214/182
f 206/25/24 160/185/158 175/213/181
f 173/209/177 187/215/183 188/216/184
f 165/208/176 181/217/185 166/210/178
f 173/209/177 189/218/186 174/211/179
f 167/212/180 181/217/185 182/219/187
f 175/213/181 189/218/186 190/220/188
f 167/212/180 183/221/189 168/197/168
f 161/214/182 297/23/22 176/222/190
f 206/25/24 175/213/181 190/220/188
f 168/197/168 184/223/191 169/198/169
f 161/214/182 177/224/192 162/199/170
f 169/198/169 185/225/193 170/200/171
f 162/199/170 178/226/194 163/201/172
f 170/203/171 186/227/195 171/204/173
f 163/228/172 179/229/196 164/206/174
f 171/204/173 187/215/183 172/207/175
f 164/206/174 180/230/197 165/208/176
f 184/231/191 200/232/198 185/233/193
f 177/224/192 193/234/199 178/226/194
f 186/235/195 200/232/198 201/236/200
f 179/229/196 193/237/199 194/238/201
f 186/227/195 202/239/202 187/215/183
f 180/230/197 194/238/201 195/240/203
f 188/216/184 202/239/202 203/241/204
f 180/230/197 196/242/205 181/217/185
f 188/216/184 204/243/206 189/218/186
f 182/219/187 196/242/205 197/244/207
f 190/220/188 204/243/206 205/245/208
f 182/219/187 198/246/209 183/221/189
f 176/222/190 297/23/22 191/247/210
f 206/25/24 190/220/188 205/245/208
f 184/231/191 198/248/209 199/249/211
f 176/222/190 192/250/212 177/224/192
f 203/241/204 220/251/213 204/243/206
f 197/252/207 212/253/214 213/254/215
f 204/243/206 221/255/216 205/245/208
f 197/252/207 214/256/217 198/248/209
f 191/247/210 297/23/22 207/257/218
f 206/25/24 205/245/208 221/255/216
f 198/248/209 215/258/219 199/249/211
f 191/247/210 208/259/220 192/250/212
f 199/249/211 216/260/221 200/232/198
f 193/234/199 208/259/220 209/261/222
f 201/236/200 216/260/221 217/262/223
f 193/234/199 210/263/224 194/264/201
f 201/236/200 218/265/225 202/266/202
f 194/238/201 211/267/226 195/240/203
f 203/241/204 218/268/225 219/269/227
f 195/270/203 212/253/214 196/271/205
f 208/259/220 224/272/228 209/261/222
f 217/262/223 231/273/229 232/274/230
f 209/261/222 225/275/231 210/263/224
f 217/262/223 233/276/232 218/265/225
f 210/277/224 226/278/233 211/279/226
f 218/268/225 234/280/234 219/269/227
f 211/279/226 227/281/235 212/253/214
f 219/269/227 235/282/236 220/251/213
f 213/254/215 227/281/235 228/283/237
f 221/255/216 235/282/236 236/284/238
f 213/254/215 229/285/239 214/256/217
f 207/257/218 297/23/22 222/286/240
f 206/25/24 221/255/216 236/284/238
f 214/256/217 230/287/241 215/258/219
f 207/257/218 223/288/242 208/259/220
f 215/258/219 231/273/229 216/260/221
f 228/283/237 242/289/243 243/290/244
f 236/284/238 250/291/245 251/292/246
f 228/283/237 244/293/247 229/285/239
f 222/286/240 297/23/22 237/294/248
f 206/25/24 236/284/238 251/292/246
f 229/285/239 245/295/249 230/287/241
f 222/286/240 238/296/250 223/288/242
f 230/287/241 246/297/251 231/273/229
f 224/272/228 238/296/250 239/298/252
f 232/274/230 246/297/251 247/299/253
f 225/275/231 239/298/252 240/300/254
f 232/274/230 248/301/255 233/276/232
f 225/302/231 241/303/256 226/278/233
f 234/280/234 248/304/255 249/305/257
f 226/278/233 242/289/243 227/281/235
f 234/280/234 250/291/245 235/282/236
f 247/299/253 261/306/258 262/307/259
f 240/300/254 254/308/260 255/309/261
f 247/299/253 263/310/262 248/301/255
f 241/303/256 255/311/261 256/312/263
f 248/301/255 264/313/264 249/314/257
f 241/303/256 257/315/265 242/289/243
f 249/305/257 265/316/266 250/291/245
f 243/290/244 257/315/265 258/317/267
f 250/291/245 266/318/268 251/292/246
f 243/290/244 259/319/269 244/293/247
f 237/294/248 297/23/22 252/320/270
f 206/25/24 251/292/246 266/318/268
f 244/293/247 260/321/271 245/295/249
f 237/294/248 253/322/272 238/296/250
f 245/295/249 261/306/258 246/297/251
f 238/296/250 254/308/260 239/298/252
f 266/318/268 280/323/273 281/324/274
f 258/317/267 274/325/275 259/319/269
f 252/320/270 297/23/22 267/326/276
f 206/25/24 266/318/268 281/324/274
f 260/321/271 274/325/275 275/327/277
f 252/320/270 268/328/278 253/322/272
f 260/321/271 276/329/279 261/306/258
f 253/322/272 269/330/280 254/308/260
f 262/307/259 276/329/279 277/331/281
f 255/309/261 269/330/280 270/332/282
f 262/307/259 278/333/283 263/310/262
f 256/312/263 270/334/282 271/335/284
f 263/310/262 279/336/285 264/313/264
f 256/312/263 272/337/286 257/315/265
f 265/316/266 279/338/285 280/323/273
f 258/317/267 272/337/286 273/339/287
f 269/330/280 285/340/288 270/332/282
f 277/331/281 293/341/289 278/333/283
f 271/342/284 285/340/288 286/343/290
f 279/336/285 293/341/289 294/344/291
f 271/335/284 287/345/292 272/337/286
f 279/338/285 295/346/293 280/323/273
f 273/339/287 287/345/292 288/347/294
f 281/324/274 295/346/293 296/348/295
f 273/339/287 289/349/296 274/325/275
f 267/326/276 297/23/22 282/350/297
f 206/25/24 281/324/274 296/348/295
f 274/325/275 290/351/298 275/327/277
f 267/326/276 283/352/299 268/328/278
f 275/327/277 291/353/300 276/329/279
f 268/328/278 284/354/301 269/330/280
f 277/331/281 291/353/300 292/355/302
f 289/349/296 304/356/303 305/357/304
f 282/350/297 297/23/22 298/358/305
f 206/25/24 296/348/295 312/359/306
f 289/349/296 306/360/307 290/351/298
f 282/350/297 299/361/308 283/352/299
f 290/351/298 307/362/309 291/353/300
f 283/352/299 300/363/310 284/354/301
f 292/355/302 307/362/309 308/364/311
f 285/340/288 300/363/310 301/365/312
f 292/355/302 309/366/313 293/341/289
f 286/343/290 301/365/312 302/367/314
f 293/368/289 310/369/315 294/370/291
f 286/371/290 303/372/316 287/345/292
f 294/370/291 311/373/317 295/346/293
f 288/347/294 303/372/316 304/356/303
f 295/346/293 312/359/306 296/348/295
f 308/374/311 324/375/318 309/376/313
f 302/367/314 316/377/319 317/378/320
f 309/376/313 325/379/321 310/380/315
f 302/367/314 318/381/322 303/382/316
f 311/373/317 325/383/321 326/384/323
f 304/356/303 318/385/322 319/386/324
f 311/373/317 327/387/325 312/359/306
f 304/356/303 320/388/326 305/357/304
f 298/358/305 297/23/22 313/389/327
f 206/25/24 312/359/306 327/387/325
f 305/357/304 321/390/328 306/360/307
f 298/358/305 314/391/329 299/361/308
f 306/392/307 322/393/330 307/394/309
f 299/361/308 315/395/331 300/363/310
f 308/374/311 322/393/330 323/396/332
f 301/365/312 315/395/331 316/377/319
f 206/25/24 327/387/325 342/397/333
f 320/398/326 336/399/334 321/400/328
f 313/389/327 329/401/335 314/391/329
f 321/400/328 337/402/336 322/393/330
f 314/391/329 330/403/337 315/395/331
f 323/396/332 337/402/336 338/404/338
f 316/377/319 330/403/337 331/405/339
f 324/375/318 338/404/338 339/406/340
f 317/378/320 331/405/339 332/407/341
f 324/375/318 340/408/342 325/379/321
f 317/378/320 333/409/343 318/381/322
f 326/384/323 340/410/342 341/411/344
f 319/412/324 333/413/343 334/414/345
f 327/387/325 341/411/344 342/397/333
f 319/412/324 335/415/346 320/398/326
f 313/389/327 297/23/22 328/416/347
f 339/406/340 355/417/348 340/408/342
f 332/407/341 348/418/349 333/409/343
f 341/411/344 355/419/348 356/420/350
f 334/414/345 348/421/349 349/422/351
f 341/411/344 357/423/352 342/397/333
f 334/414/345 350/424/353 335/415/346
f 328/416/347 297/23/22 343/425/354
f 206/25/24 342/397/333 357/423/352
f 335/415/346 351/426/355 336/399/334
f 329/401/335 343/425/354 344/427/356
f 336/399/334 352/428/357 337/402/336
f 329/401/335 345/429/358 330/403/337
f 338/404/338 352/428/357 353/430/359
f 331/405/339 345/429/358 346/431/360
f 338/404/338 354/432/361 339/406/340
f 332/407/341 346/431/360 347/433/362
f 344/427/356 358/434/363 359/435/364
f 351/426/355 367/436/365 352/428/357
f 344/427/356 360/437/366 345/429/358
f 353/430/359 367/436/365 368/438/367
f 346/431/360 360/437/366 361/439/368
f 353/430/359 369/440/369 354/432/361
f 346/431/360 362/441/370 347/433/362
f 355/417/348 369/440/369 370/442/371
f 347/433/362 363/443/372 348/418/349
f 356/420/350 370/444/371 371/445/373
f 349/422/351 363/446/372 364/447/374
f 356/420/350 372/448/375 357/423/352
f 349/422/351 365/449/376 350/424/353
f 343/425/354 297/23/22 358/434/363
f 206/25/24 357/423/352 372/448/375
f 351/426/355 365/449/376 366/450/377
f 362/451/370 378/452/378 363/446/372
f 371/453/373 385/454/379 386/455/380
f 364/447/374 378/452/378 379/456/381
f 371/445/373 387/457/382 372/448/375
f 364/447/374 380/458/383 365/449/376
f 358/434/363 297/23/22 373/459/384
f 206/25/24 372/448/375 387/457/382
f 366/450/377 380/458/383 381/460/385
f 359/435/364 373/459/384 374/461/386
f 366/450/377 382/462/387 367/436/365
f 359/435/364 375/463/388 360/437/366
f 368/438/367 382/462/387 383/464/389
f 361/439/368 375/463/388 376/465/390
f 368/438/367 384/466/391 369/440/369
f 362/441/370 376/465/390 377/467/392
f 369/440/369 385/454/379 370/442/371
f 381/460/385 397/468/393 382/462/387
f 374/461/386 390/469/394 375/463/388
f 383/464/389 397/468/393 398/470/395
f 376/465/390 390/469/394 391/471/396
f 383/464/389 399/472/397 384/466/391
f 376/465/390 392/473/398 377/467/392
f 384/466/391 400/474/399 385/454/379
f 377/475/392 393/476/400 378/452/378
f 386/477/380 400/478/399 401/479/401
f 379/456/381 393/476/400 394/480/402
f 386/477/380 402/481/403 387/457/382
f 379/456/381 395/482/404 380/458/383
f 373/459/384 297/23/22 388/483/405
f 206/25/24 387/457/382 402/481/403
f 380/458/383 396/484/406 381/460/385
f 373/459/384 389/485/407 374/461/386
f 401/479/401 415/486/408 416/487/409
f 394/480/402 408/488/410 409/489/411
f 401/479/401 417/490/412 402/481/403
f 394/480/402 410/491/413 395/482/404
f 388/483/405 297/23/22 403/492/414
f 206/25/24 402/481/403 417/490/412
f 396/484/406 410/491/413 411/493/415
f 388/483/405 404/494/416 389/485/407
f 396/484/406 412/495/417 397/468/393
f 390/469/394 404/494/416 405/496/418
f 398/470/395 412/495/417 413/497/419
f 391/471/396 405/496/418 406/498/420
f 398/470/395 414/499/421 399/472/397
f 392/473/398 406/498/420 407/500/422
f 399/472/397 415/501/408 400/474/399
f 392/473/398 408/502/410 393/503/400
f 404/494/416 420/504/423 405/496/418
f 413/497/419 427/505/424 428/506/425
f 405/496/418 421/507/426 406/498/420
f 413/497/419 429/508/427 414/499/421
f 407/500/422 421/507/426 422/509/428
f 414/499/421 430/510/429 415/501/408
f 407/500/422 423/511/430 408/502/410
f 415/486/408 431/512/431 416/487/409
f 409/489/411 423/513/430 424/514/432
f 416/487/409 432/515/433 417/490/412
f 409/489/411 425/516/434 410/491/413
f 403/492/414 297/23/22 418/517/435
f 206/25/24 417/490/412 432/515/433
f 411/493/415 425/516/434 426/518/436
f 403/492/414 419/519/437 404/494/416
f 411/493/415 427/505/424 412/495/417
f 424/520/432 438/521/438 439/522/439
f 431/512/431 447/523/440 432/515/433
f 425/524/434 439/522/439 440/525/441
f 418/517/435 297/23/22 433/526/442
f 206/25/24 432/515/433 447/523/440
f 425/516/434 441/527/443 426/518/436
f 418/517/435 434/528/444 419/519/437
f 426/518/436 442/529/445 427/505/424
f 419/519/437 435/530/446 420/504/423
f 428/506/425 442/529/445 443/531/447
f 420/504/423 436/532/448 421/507/426
f 428/506/425 444/533/449 429/508/427
f 422/509/428 436/532/448 437/534/450
f 430/510/429 444/533/449 445/535/451
f 422/536/428 438/521/438 423/537/430
f 430/538/429 446/539/452 431/512/431
f 443/540/447 457/541/453 458/542/454
f 436/532/448 450/543/455 451/544/456
f 443/531/447 459/545/457 444/533/449
f 437/546/450 451/547/456 452/548/458
f 444/549/449 460/550/459 445/551/451
f 437/546/450 453/552/460 438/521/438
f 445/551/451 461/553/461 446/539/452
f 439/522/439 453/552/460 454/554/462
f 446/539/452 462/555/463 447/523/440
f 439/522/439 455/556/464 440/525/441
f 433/526/442 297/23/22 448/557/465
f 206/25/24 447/523/440 462/555/463
f 440/525/441 456/558/466 441/559/443
f 434/528/444 448/557/465 449/560/467
f 441/559/443 457/541/453 442/561/445
f 435/530/446 449/560/467 450/543/455
f 462/555/463 476/562/468 477/563/469
f 454/554/462 470/564/470 455/556/464
f 448/557/465 297/23/22 463/565/471
f 206/25/24 462/555/463 477/563/469
f 455/556/464 471/566/472 456/558/466
f 448/557/465 464/567/473 449/560/467
f 456/558/466 472/568/474 457/541/453
f 449/560/467 465/569/475 450/543/455
f 458/542/454 472/568/474 473/570/476
f 450/543/455 466/571/477 451/544/456
f 458/542/454 474/572/478 459/573/457
f 452/548/458 466/574/477 467/575/479
f 459/576/457 475/577/480 460/550/459
f 452/548/458 468/578/481 453/552/460
f 460/550/459 476/562/468 461/553/461
f 454/554/462 468/578/481 469/579/482
f 473/570/476 480/6/6 474/572/478
f 467/575/479 4/3/3 5/8/8
f 474/580/478 10/11/10 475/577/480
f 468/578/481 5/8/8 6/13/12
f 475/577/480 481/15/14 476/562/468
f 469/579/482 6/13/12 7/17/16
f 476/562/468 482/19/18 477/563/469
f 470/564/470 7/17/16 8/21/20
f 463/565/471 297/23/22 1/22/21
f 206/25/24 477/563/469 482/19/18
f 470/564/470 9/27/26 471/566/472
f 464/567/473 1/22/21 2/29/28
f 471/566/472 478/31/30 472/568/474
f 465/569/475 2/29/28 3/32/1
f 473/570/476 478/31/30 479/4/4
f 466/571/477 3/32/1 4/581/3
f 3/1/1 13/39/31 14/2/2
f 479/4/4 21/34/32 22/5/5
f 4/3/3 14/2/2 15/7/7
f 480/9/6 22/43/5 23/10/9
f 5/8/8 15/7/7 16/12/11
f 10/11/10 23/10/9 24/14/13
f 6/13/12 16/12/11 17/16/15
f 481/15/14 24/14/13 25/18/17
f 7/17/16 17/16/15 18/20/19
f 8/21/20 18/20/19 19/26/25
f 1/22/21 11/24/23 12/28/27
f 9/27/26 19/26/25 20/30/29
f 3/32/1 2/29/28 12/28/27
f 478/31/30 20/30/29 21/34/32
f 20/30/29 19/26/25 34/35/33
f 12/28/27 27/51/47 28/37/35
f 20/30/29 35/36/34 36/38/36
f 13/39/31 28/63/35 29/40/37
f 22/5/5 21/34/32 36/38/36
f 14/2/2 29/40/37 30/42/39
f 22/43/5 37/65/38 38/44/40
f 15/7/7 30/42/39 31/45/41
f 23/10/9 38/44/40 39/46/42
f 16/12/11 31/45/41 32/47/43
f 24/14/13 39/46/42 40/48/44
f 17/16/15 32/47/43 33/49/45
f 19/26/25 18/20/19 33/49/45
f 11/24/23 26/50/46 27/51/47
f 38/44/40 53/69/62 54/52/48
f 32/47/43 31/45/41 46/53/49
f 39/46/42 54/52/48 55/55/51
f 32/47/43 47/54/50 48/56/52
f 33/49/45 48/56/52 49/58/54
f 26/50/46 41/57/53 42/59/55
f 34/35/33 49/58/54 50/60/56
f 27/51/47 42/59/55 43/61/57
f 36/38/36 35/36/34 50/60/56
f 28/63/35 43/582/57 44/64/59
f 37/65/38 36/583/36 51/66/58
f 29/40/37 44/64/59 45/68/61
f 37/65/38 52/67/60 53/69/62
f 30/42/39 45/68/61 46/53/49
f 51/62/58 50/60/56 65/70/63
f 43/61/57 58/85/77 59/72/65
f 51/66/58 66/94/64 67/74/66
f 44/64/59 59/584/65 60/75/67
f 52/67/60 67/74/66 68/76/68
f 45/68/61 60/75/67 61/77/69
f 53/69/62 68/76/68 69/78/70
f 46/53/49 61/77/69 62/79/71
f 54/52/48 69/78/70 70/80/72
f 48/56/52 47/54/50 62/79/71
f 48/56/52 63/81/73 64/83/75
f 41/57/53 56/82/74 57/84/76
f 49/58/54 64/83/75 65/70/63
f 42/59/55 57/84/76 58/85/77
f 69/78/70 84/106/92 85/86/78
f 63/81/73 62/79/71 77/87/79
f 63/81/73 78/88/80 79/90/82
f 56/82/74 71/89/81 72/91/83
f 64/83/75 79/90/82 80/92/84
f 57/84/76 72/91/83 73/93/85
f 66/94/64 65/585/63 80/95/84
f 58/97/77 73/109/85 74/98/87
f 66/94/64 81/96/86 82/100/88
f 60/101/67 59/99/65 74/98/87
f 68/76/68 67/74/66 82/100/88
f 60/101/67 75/102/89 76/104/91
f 69/78/70 68/76/68 83/103/90
f 61/105/69 76/104/91 77/107/79
f 73/109/85 88/586/107 89/110/93
f 82/100/88 81/96/86 96/111/94
f 75/102/89 74/98/87 89/110/93
f 82/100/88 97/112/95 98/114/97
f 75/102/89 90/113/96 91/115/98
f 84/106/92 83/103/90 98/114/97
f 77/107/79 76/104/91 91/115/98
f 84/106/92 99/116/99 100/118/101
f 77/107/79 92/117/100 93/119/102
f 78/120/80 93/119/102 94/122/104
f 71/89/81 86/121/103 87/124/105
f 79/123/82 94/122/104 95/125/106
f 72/91/83 87/124/105 88/127/107
f 81/96/86 80/95/84 95/128/106
f 92/117/100 107/145/122 108/129/108
f 93/119/102 108/129/108 109/132/111
f 86/121/103 101/130/109 102/133/112
f 94/122/104 109/132/111 110/134/113
f 87/124/105 102/133/112 103/135/114
f 96/111/94 95/128/106 110/136/113
f 89/110/93 88/586/107 103/138/114
f 97/112/95 96/111/94 111/137/115
f 89/110/93 104/139/116 105/141/118
f 97/112/95 112/140/117 113/142/119
f 90/113/96 105/141/118 106/143/120
f 98/114/97 113/142/119 114/144/121
f 92/117/100 91/115/98 106/143/120
f 100/118/101 99/116/99 114/144/121
f 111/137/115 126/160/136 127/146/123
f 104/139/116 119/161/137 120/147/124
f 113/142/119 112/140/117 127/146/123
f 105/141/118 120/147/124 121/149/126
f 114/144/121 113/142/119 128/148/125
f 107/145/122 106/143/120 121/149/126
f 115/131/110 114/144/121 129/150/127
f 107/145/122 122/151/128 123/153/130
f 109/132/111 108/129/108 123/153/130
f 101/130/109 116/154/131 117/156/133
f 109/132/111 124/155/132 125/157/134
f 102/133/112 117/156/133 118/158/135
f 111/137/115 110/136/113 125/159/134
f 103/138/114 118/169/135 119/161/137
f 123/153/130 138/179/152 139/164/140
f 117/156/133 116/154/131 131/162/138
f 124/155/132 139/164/140 140/166/142
f 117/167/133 132/587/141 133/168/143
f 126/170/136 125/157/134 140/166/142
f 118/169/135 133/168/143 134/172/145
f 126/160/136 141/195/144 142/173/146
f 120/147/124 119/161/137 134/172/145
f 128/148/125 127/146/123 142/173/146
f 120/147/124 135/174/147 136/176/149
f 128/148/125 143/175/148 144/177/150
f 122/151/128 121/149/126 136/176/149
f 130/152/129 129/150/127 144/177/150
f 122/151/128 137/178/151 138/179/152
f 134/172/145 149/194/166 150/180/153
f 142/173/146 157/196/167 158/181/154
f 135/174/147 150/180/153 151/182/155
f 144/177/150 143/175/148 158/181/154
f 137/178/151 136/176/149 151/182/155
f 144/177/150 159/183/156 160/185/158
f 137/178/151 152/184/157 153/186/159
f 138/179/152 153/186/159 154/188/161
f 131/162/138 146/187/160 147/189/162
f 139/164/140 154/188/161 155/190/163
f 133/191/143 132/165/141 147/189/162
f 141/171/144 140/166/142 155/190/163
f 133/168/143 148/205/164 149/194/166
f 141/195/144 156/202/165 157/196/167
f 154/188/161 153/186/159 168/197/168
f 146/187/160 161/214/182 162/199/170
f 154/188/161 169/198/169 170/200/171
f 147/189/162 162/199/170 163/201/172
f 156/202/165 155/588/163 170/203/171
f 148/205/164 163/228/172 164/206/174
f 156/202/165 171/204/173 172/207/175
f 150/180/153 149/194/166 164/206/174
f 158/181/154 157/196/167 172/207/175
f 150/180/153 165/208/176 166/210/178
f 158/181/154 173/209/177 174/211/179
f 152/184/157 151/182/155 166/210/178
f 159/183/156 174/211/179 175/213/181
f 152/184/157 167/212/180 168/197/168
f 173/209/177 172/207/175 187/215/183
f 165/208/176 180/230/197 181/217/185
f 173/209/177 188/216/184 189/218/186
f 167/212/180 166/210/178 181/217/185
f 175/213/181 174/211/179 189/218/186
f 167/212/180 182/219/187 183/221/189
f 168/197/168 183/221/189 184/223/191
f 161/214/182 176/222/190 177/224/192
f 169/198/169 184/223/191 185/225/193
f 162/199/170 177/224/192 178/226/194
f 170/203/171 185/589/193 186/227/195
f 163/228/172 178/590/194 179/229/196
f 171/204/173 186/227/195 187/215/183
f 164/206/174 179/229/196 180/230/197
f 184/231/191 199/249/211 200/232/198
f 177/224/192 192/250/212 193/234/199
f 186/235/195 185/233/193 200/232/198
f 179/229/196 178/590/194 193/237/199
f 186/227/195 201/591/200 202/239/202
f 180/230/197 179/229/196 194/238/201
f 188/216/184 187/215/183 202/239/202
f 180/230/197 195/240/203 196/242/205
f 188/216/184 203/241/204 204/243/206
f 182/219/187 181/217/185 196/242/205
f 190/220/188 189/218/186 204/243/206
f 182/219/187 197/244/207 198/246/209
f 184/231/191 183/592/189 198/248/209
f 176/222/190 191/247/210 192/250/212
f 203/241/204 219/269/227 220/251/213
f 197/252/207 196/271/205 212/253/214
f 204/243/206 220/251/213 221/255/216
f 197/252/207 213/254/215 214/256/217
f 198/248/209 214/256/217 215/258/219
f 191/247/210 207/257/218 208/259/220
f 199/249/211 215/258/219 216/260/221
f 193/234/199 192/250/212 208/259/220
f 201/236/200 200/232/198 216/260/221
f 193/234/199 209/261/222 210/263/224
f 201/236/200 217/262/223 218/265/225
f 194/238/201 210/593/224 211/267/226
f 203/241/204 202/239/202 218/268/225
f 195/270/203 211/279/226 212/253/214
f 208/259/220 223/288/242 224/272/228
f 217/262/223 216/260/221 231/273/229
f 209/261/222 224/272/228 225/275/231
f 217/262/223 232/274/230 233/276/232
f 210/277/224 225/302/231 226/278/233
f 218/268/225 233/594/232 234/280/234
f 211/279/226 226/278/233 227/281/235
f 219/269/227 234/280/234 235/282/236
f 213/254/215 212/253/214 227/281/235
f 221/255/216 220/251/213 235/282/236
f 213/254/215 228/283/237 229/285/239
f 214/256/217 229/285/239 230/287/241
f 207/257/218 222/286/240 223/288/242
f 215/258/219 230/287/241 231/273/229
f 228/283/237 227/281/235 242/289/243
f 236/284/238 235/282/236 250/291/245
f 228/283/237 243/290/244 244/293/247
f 229/285/239 244/293/247 245/295/249
f 222/286/240 237/294/248 238/296/250
f 230/287/241 245/295/249 246/297/251
f 224/272/228 223/288/242 238/296/250
f 232/274/230 231/273/229 246/297/251
f 225/275/231 224/272/228 239/298/252
f 232/274/230 247/299/253 248/301/255
f 225/302/231 240/595/254 241/303/256
f 234/280/234 233/594/232 248/304/255
f 226/278/233 241/303/256 242/289/243
f 234/280/234 249/305/257 250/291/245
f 247/299/253 246/297/251 261/306/258
f 240/300/254 239/298/252 254/308/260
f 247/299/253 262/307/259 263/310/262
f 241/303/256 240/595/254 255/311/261
f 248/301/255 263/310/262 264/313/264
f 241/303/256 256/312/263 257/315/265
f 249/305/257 264/596/264 265/316/266
f 243/290/244 242/289/243 257/315/265
f 250/291/245 265/316/266 266/318/268
f 243/290/244 258/317/267 259/319/269
f 244/293/247 259/319/269 260/321/271
f 237/294/248 252/320/270 253/322/272
f 245/295/249 260/321/271 261/306/258
f 238/296/250 253/322/272 254/308/260
f 266/318/268 265/316/266 280/323/273
f 258/317/267 273/339/287 274/325/275
f 260/321/271 259/319/269 274/325/275
f 252/320/270 267/326/276 268/328/278
f 260/321/271 275/327/277 276/329/279
f 253/322/272 268/328/278 269/330/280
f 262/307/259 261/306/258 276/329/279
f 255/309/261 254/308/260 269/330/280
f 262/307/259 277/331/281 278/333/283
f 256/312/263 255/311/261 270/334/282
f 263/310/262 278/333/283 279/336/285
f 256/312/263 271/335/284 272/337/286
f 265/316/266 264/596/264 279/338/285
f 258/317/267 257/315/265 272/337/286
f 269/330/280 284/354/301 285/340/288
f 277/331/281 292/355/302 293/341/289
f 271/342/284 270/332/282 285/340/288
f 279/336/285 278/333/283 293/341/289
f 271/335/284 286/371/290 287/345/292
f 279/338/285 294/370/291 295/346/293
f 273/339/287 272/337/286 287/345/292
f 281/324/274 280/323/273 295/346/293
f 273/339/287 288/347/294 289/349/296
f 274/325/275 289/349/296 290/351/298
f 267/326/276 282/350/297 283/352/299
f 275/327/277 290/351/298 291/353/300
f 268/328/278 283/352/299 284/354/301
f 277/331/281 276/329/279 291/353/300
f 289/349/296 288/347/294 304/356/303
f 289/349/296 305/357/304 306/360/307
f 282/350/297 298/358/305 299/361/308
f 290/351/298 306/360/307 307/362/309
f 283/352/299 299/361/308 300/363/310
f 292/355/302 291/353/300 307/362/309
f 285/340/288 284/354/301 300/363/310
f 292/355/302 308/364/311 309/366/313
f 286/343/290 285/340/288 301/365/312
f 293/368/289 309/597/313 310/369/315
f 286/371/290 302/598/314 303/372/316
f 294/370/291 310/369/315 311/373/317
f 288/347/294 287/345/292 303/372/316
f 295/346/293 311/373/317 312/359/306
f 308/374/311 323/396/332 324/375/318
f 302/367/314 301/365/312 316/377/319
f 309/376/313 324/375/318 325/379/321
f 302/367/314 317/378/320 318/381/322
f 311/373/317 310/369/315 325/383/321
f 304/356/303 303/372/316 318/385/322
f 311/373/317 326/384/323 327/387/325
f 304/356/303 319/386/324 320/388/326
f 305/357/304 320/388/326 321/390/328
f 298/358/305 313/389/327 314/391/329
f 306/392/307 321/400/328 322/393/330
f 299/361/308 314/391/329 315/395/331
f 308/374/311 307/394/309 322/393/330
f 301/365/312 300/363/310 315/395/331
f 320/398/326 335/415/346 336/399/334
f 313/389/327 328/416/347 329/401/335
f 321/400/328 336/399/334 337/402/336
f 314/391/329 329/401/335 330/403/337
f 323/396/332 322/393/330 337/402/336
f 316/377/319 315/395/331 330/403/337
f 324/375/318 323/396/332 338/404/338
f 317/378/320 316/377/319 331/405/339
f 324/375/318 339/406/340 340/408/342
f 317/378/320 332/407/341 333/409/343
f 326/384/323 325/383/321 340/410/342
f 319/412/324 318/599/322 333/413/343
f 327/387/325 326/384/323 341/411/344
f 319/412/324 334/414/345 335/415/346
f 339/406/340 354/432/361 355/417/348
f 332/407/341 347/433/362 348/418/349
f 341/411/344 340/410/342 355/419/348
f 334/414/345 333/413/343 348/421/349
f 341/411/344 356/420/350 357/423/352
f 334/414/345 349/422/351 350/424/353
f 335/415/346 350/424/353 351/426/355
f 329/401/335 328/416/347 343/425/354
f 336/399/334 351/426/355 352/428/357
f 329/401/335 344/427/356 345/429/358
f 338/404/338 337/402/336 352/428/357
f 331/405/339 330/403/337 345/429/358
f 338/404/338 353/430/359 354/432/361
f 332/407/341 331/405/339 346/431/360
f 344/427/356 343/425/354 358/434/363
f 351/426/355 366/450/377 367/436/365
f 344/427/356 359/435/364 360/437/366
f 353/430/359 352/428/357 367/436/365
f 346/431/360 345/429/358 360/437/366
f 353/430/359 368/438/367 369/440/369
f 346/431/360 361/439/368 362/441/370
f 355/417/348 354/432/361 369/440/369
f 347/433/362 362/441/370 363/443/372
f 356/420/350 355/419/348 370/444/371
f 349/422/351 348/421/349 363/446/372
f 356/420/350 371/445/373 372/448/375
f 349/422/351 364/447/374 365/449/376
f 351/426/355 350/424/353 365/449/376
f 362/451/370 377/475/392 378/452/378
f 371/453/373 370/442/371 385/454/379
f 364/447/374 363/446/372 378/452/378
f 371/445/373 386/477/380 387/457/382
f 364/447/374 379/456/381 380/458/383
f 366/450/377 365/449/376 380/458/383
f 359/435/364 358/434/363 373/459/384
f 366/450/377 381/460/385 382/462/387
f 359/435/364 374/461/386 375/463/388
f 368/438/367 367/436/365 382/462/387
f 361/439/368 360/437/366 375/463/388
f 368/438/367 383/464/389 384/466/391
f 362/441/370 361/439/368 376/465/390
f 369/440/369 384/466/391 385/454/379
f 381/460/385 396/484/406 397/468/393
f 374/461/386 389/485/407 390/469/394
f 383/464/389 382/462/387 397/468/393
f 376/465/390 375/463/388 390/469/394
f 383/464/389 398/470/395 399/472/397
f 376/465/390 391/471/396 392/473/398
f 384/466/391 399/472/397 400/474/399
f 377/475/392 392/600/398 393/476/400
f 386/477/380 385/601/379 400/478/399
f 379/456/381 378/452/378 393/476/400
f 386/477/380 401/479/401 402/481/403
f 379/456/381 394/480/402 395/482/404
f 380/458/383 395/482/404 396/484/406
f 373/459/384 388/483/405 389/485/407
f 401/479/401 400/478/399 415/486/408
f 394/480/402 393/476/400 408/488/410
f 401/479/401 416/487/409 417/490/412
f 394/480/402 409/489/411 410/491/413
f 396/484/406 395/482/404 410/491/413
f 388/483/405 403/492/414 404/494/416
f 396/484/406 411/493/415 412/495/417
f 390/469/394 389/485/407 404/494/416
f 398/470/395 397/468/393 412/495/417
f 391/471/396 390/469/394 405/496/418
f 398/470/395 413/497/419 414/499/421
f 392/473/398 391/471/396 406/498/420
f 399/472/397 414/499/421 415/501/408
f 392/473/398 407/500/422 408/502/410
f 404/494/416 419/519/437 420/504/423
f 413/497/419 412/495/417 427/505/424
f 405/496/418 420/504/423 421/507/426
f 413/497/419 428/506/425 429/508/427
f 407/500/422 406/498/420 421/507/426
f 414/499/421 429/508/427 430/510/429
f 407/500/422 422/509/428 423/511/430
f 415/486/408 430/538/429 431/512/431
f 409/489/411 408/488/410 423/513/430
f 416/487/409 431/512/431 432/515/433
f 409/489/411 424/514/432 425/516/434
f 411/493/415 410/491/413 425/516/434
f 403/492/414 418/517/435 419/519/437
f 411/493/415 426/518/436 427/505/424
f 424/520/432 423/537/430 438/521/438
f 431/512/431 446/539/452 447/523/440
f 425/524/434 424/520/432 439/522/439
f 425/516/434 440/602/441 441/527/443
f 418/517/435 433/526/442 434/528/444
f 426/518/436 441/527/443 442/529/445
f 419/519/437 434/528/444 435/530/446
f 428/506/425 427/505/424 442/529/445
f 420/504/423 435/530/446 436/532/448
f 428/506/425 443/531/447 444/533/449
f 422/509/428 421/507/426 436/532/448
f 430/510/429 429/508/427 444/533/449
f 422/536/428 437/546/450 438/521/438
f 430/538/429 445/551/451 446/539/452
f 443/540/447 442/561/445 457/541/453
f 436/532/448 435/530/446 450/543/455
f 443/531/447 458/603/454 459/545/457
f 437/546/450 436/604/448 451/547/456
f 444/549/449 459/576/457 460/550/459
f 437/546/450 452/548/458 453/552/460
f 445/551/451 460/550/459 461/553/461
f 439/522/439 438/521/438 453/552/460
f 446/539/452 461/553/461 462/555/463
f 439/522/439 454/554/462 455/556/464
f 440/525/441 455/556/464 456/558/466
f 434/528/444 433/526/442 448/557/465
f 441/559/443 456/558/466 457/541/453
f 435/530/446 434/528/444 449/560/467
f 462/555/463 461/553/461 476/562/468
f 454/554/462 469/579/482 470/564/470
f 455/556/464 470/564/470 471/566/472
f 448/557/465 463/565/471 464/567/473
f 456/558/466 471/566/472 472/568/474
f 449/560/467 464/567/473 465/569/475
f 458/542/454 457/541/453 472/568/474
f 450/543/455 465/569/475 466/571/477
f 458/542/454 473/570/476 474/572/478
f 452/548/458 451/547/456 466/574/477
f 459/576/457 474/580/478 475/577/480
f 452/548/458 467/575/479 468/578/481
f 460/550/459 475/577/480 476/562/468
f 454/554/462 453/552/460 468/578/481
f 473/570/476 479/4/4 480/6/6
f 467/575/479 466/574/477 4/3/3
f 474/580/478 480/9/6 10/11/10
f 468/578/481 467/575/479 5/8/8
f 475/577/480 10/11/10 481/15/14
f 469/579/482 468/578/481 6/13/12
f 476/562/468 481/15/14 482/19/18
f 470/564/470 469/579/482 7/17/16
f 470/564/470 8/21/20 9/27/26
f 464/567/473 463/565/471 1/22/21
f 471/566/472 9/27/26 478/31/30
f 465/569/475 464/567/473 2/29/28
f 473/570/476 472/568/474 478/31/30
f 466/571/477 465/569/475 3/32/1
