# Blender v2.80 (sub 57) OBJ File: ''
# www.blender.org
o Tree_1
v -1.231302 -0.745873 0.424435
v 1.488343 -0.750578 0.404396
v 1.103567 2.984692 0.111639
v -0.851002 2.181828 0.103365
v 1.508385 -0.842566 -2.706019
v 1.118438 2.927580 -2.196372
v -1.211262 -0.837861 -2.685980
v -0.836130 2.124716 -2.204646
v 0.005670 7.047893 0.510842
v -1.825325 7.047891 0.510842
v 0.005672 7.047891 -1.320152
v -1.825325 7.047890 -1.320153
v -1.358234 12.712279 0.631464
v -2.652702 12.712280 0.631463
v -1.358232 12.712280 -0.663005
v -2.652702 12.712279 -0.663005
v -2.075396 14.125824 0.526054
v -0.991745 14.125824 0.526055
v 2.932589 23.942266 -0.144794
v 2.222612 23.942266 -0.144795
v -0.991745 14.125824 -0.557595
v 2.932590 23.942268 -0.854772
v -2.075396 14.125824 -0.557595
v 2.222612 23.942266 -0.854772
v -7.878328 19.236574 -0.684130
v -7.878330 19.236572 -0.315448
v -8.533752 18.850143 -0.736656
v -8.533752 18.850145 -0.262922
v -11.008415 22.958094 -0.524707
v -11.008415 22.958094 -0.474871
v -11.277569 22.799406 -0.496441
v -11.277569 22.799404 -0.503136
v -10.080681 29.906803 -3.279459
v -13.212868 28.009972 -3.949009
v -9.838326 28.364273 0.142339
v -15.028255 26.297131 -0.704996
v -15.865755 29.579634 1.681721
v -13.336170 27.315845 3.881556
v -7.298534 29.813551 -1.878963
v -9.567015 27.466789 3.088251
v -6.985901 27.880165 2.268255
v -6.531582 27.692141 -5.145635
v -3.971140 25.680254 0.483484
v -5.736311 25.833584 -3.878929
v -10.697931 29.147774 -6.822568
v -9.422997 25.275507 -6.811968
v -13.110977 25.179443 -6.587793
v -13.695671 26.425097 -3.666150
v -17.036366 23.558960 -2.607003
v -16.383095 24.574160 1.139723
v -14.090302 20.888088 -2.263656
v -16.482479 20.602236 2.565875
v -14.625420 23.549633 3.684893
v -13.639832 22.964319 5.285821
v -10.277302 25.346275 6.053804
v -13.292095 22.105591 7.067733
v -10.195312 21.935492 6.273423
v -6.504444 25.738562 4.945807
v -4.564552 24.919262 0.370300
v -6.286858 21.854336 3.872572
v -5.149714 19.215021 1.057771
v -5.088902 21.637419 -2.518973
v -5.431009 22.412756 -4.485987
v -4.677637 19.541361 -1.816932
v -7.662910 20.066061 -4.191551
v -9.460632 21.482811 -5.720657
v -12.836128 24.380663 -5.939904
v -12.033215 20.563831 -3.025937
v -9.770226 18.423403 1.426159
v -10.095020 18.211536 5.095103
v -13.209038 19.648685 3.685216
v -7.237324 19.991619 0.871909
v -8.594498 19.025614 -1.774207
v -12.663290 18.410084 0.076825
v 3.652262 24.119846 -7.106249
v -0.225229 23.338024 -6.147947
v 4.029304 26.512928 -3.783276
v -2.085196 25.998110 -3.067174
v -1.783529 30.084463 -5.000816
v 0.638548 30.392996 -1.313198
v 6.768353 24.689922 -5.852118
v 4.528467 28.771091 -1.318200
v 7.229139 27.553881 -1.761774
v 6.553804 20.369658 -5.493546
v 9.583708 24.022348 -0.199035
v 7.111944 20.438560 -2.946576
v 2.281905 20.564714 -8.384517
v 2.650104 18.331163 -4.544818
v -1.225410 19.424301 -4.884596
v -1.091185 22.939240 -4.576945
v -5.174707 23.355536 -1.810458
v -3.671432 27.220339 -0.658661
v -2.693640 21.610071 1.326625
v -4.564739 26.615839 3.828954
v -1.698446 28.663580 1.932851
v -0.568920 29.630991 3.489384
v 3.688215 30.688166 2.161761
v -0.153202 30.793819 5.305077
v 2.947370 29.181145 5.501284
v 7.595923 28.888998 1.761416
v 8.749864 23.687735 0.367774
v 6.685583 25.896231 4.873245
v 6.797836 21.650764 6.016771
v 6.938856 19.472187 1.827983
v 6.480419 18.092367 -0.007673
v 6.948345 18.988676 4.238272
v 3.581689 17.767347 2.025354
v 1.817054 17.484985 -0.396238
v -1.040604 19.568165 -3.744439
v -0.722321 20.213163 1.529900
v 1.786180 22.769485 6.269669
v 1.938210 26.198627 8.388426
v -1.190014 26.370457 5.815137
v 4.766913 22.387716 4.874746
v 2.698839 19.760469 4.161930
v -1.465981 22.222620 5.126699
vt 0.309455 0.449966
vt 0.349136 0.401779
vt 0.352740 0.449966
vt 0.209716 0.033576
vt 0.259261 0.084311
vt 0.222036 0.091598
vt 0.072693 0.041155
vt 0.106389 0.093749
vt 0.074135 0.104713
vt 0.417777 0.407446
vt 0.470827 0.375351
vt 0.461181 0.424681
vt 0.335480 0.320500
vt 0.364679 0.320569
vt 0.251693 0.149425
vt 0.222088 0.154516
vt 0.085701 0.175497
vt 0.438569 0.362739
vt 0.473694 0.292764
vt 0.358771 0.226419
vt 0.250568 0.237955
vt 0.115270 0.177663
vt 0.100804 0.271735
vt 0.447983 0.283477
vt 0.484364 0.199606
vt 0.353900 0.203084
vt 0.309131 0.040933
vt 0.371181 0.203125
vt 0.253050 0.262166
vt 0.278993 0.433866
vt 0.235529 0.265179
vt 0.093359 0.294821
vt 0.034385 0.452708
vt 0.022919 0.451868
vt 0.139884 0.046190
vt 0.155817 0.218001
vt 0.145378 0.219851
vt 0.379414 0.226468
vt 0.110859 0.296103
vt 0.121709 0.273266
vt 0.365910 0.128053
vt 0.354720 0.054679
vt 0.383173 0.130535
vt 0.211882 0.381500
vt 0.200798 0.387193
vt 0.411120 0.228098
vt 0.398038 0.355870
vt 0.390328 0.355268
vt 0.479320 0.125976
vt 0.737965 0.784985
vt 0.737965 0.734741
vt 0.737166 0.785158
vt 0.247563 0.452708
vt 0.381926 0.421327
vt 0.381817 0.421318
vt 0.521417 0.058240
vt 0.525558 0.060856
vt 0.318223 0.388374
vt 0.259848 0.023514
vt 0.116541 0.044482
vt 0.229638 0.241554
vt 0.466186 0.193041
vt 0.297809 0.040906
vt 0.290473 0.431892
vt 0.155817 0.043366
vt 0.348847 0.053835
vt 0.432189 0.229744
vt 0.469236 0.119605
vt 0.732052 0.736021
vt 0.252114 0.450370
vt 0.815504 0.174990
vt 0.762268 0.150467
vt 0.844819 0.121065
vt 0.140066 0.878677
vt 0.109648 0.817843
vt 0.162763 0.774372
vt 0.774369 0.061378
vt 0.824647 0.037499
vt 0.866441 0.175913
vt 0.871688 0.077462
vt 0.902128 0.110348
vt 0.270235 0.941977
vt 0.239226 0.902843
vt 0.270235 0.875976
vt 0.926149 0.145529
vt 0.719274 0.914700
vt 0.771036 0.879085
vt 0.755787 0.967792
vt 0.781136 0.946782
vt 0.846391 0.215209
vt 0.775890 0.215209
vt 0.286301 0.885705
vt 0.301574 0.855881
vt 0.349269 0.908428
vt 0.305730 0.960124
vt 0.380224 0.958923
vt 0.162763 0.939235
vt 0.092635 0.920451
vt 0.113194 0.871772
vt 0.059510 0.833428
vt 0.079382 0.781319
vt 0.222966 0.600999
vt 0.168342 0.630892
vt 0.146919 0.543924
vt 0.014797 0.761178
vt 0.199069 0.974765
vt 0.182440 0.912573
vt 0.231245 0.947994
vt 0.725875 0.382442
vt 0.666891 0.344408
vt 0.730036 0.316180
vt 0.443588 0.965581
vt 0.464268 0.989883
vt 0.415151 0.950259
vt 0.464268 0.904331
vt 0.892572 0.842759
vt 0.864885 0.780868
vt 0.910350 0.789412
vt 0.743129 0.845165
vt 0.771981 0.799934
vt 0.785490 0.878712
vt 0.944665 0.862367
vt 0.961691 0.799029
vt 0.835471 0.813757
vt 0.878393 0.859718
vt 0.844527 0.921298
vt 0.836155 0.953667
vt 0.875860 0.908401
vt 0.348804 0.822927
vt 0.373987 0.782147
vt 0.398972 0.833215
vt 0.226505 0.690071
vt 0.152033 0.721989
vt 0.211882 0.685737
vt 0.107040 0.722580
vt 0.149768 0.662244
vt 0.327712 0.696457
vt 0.328781 0.663735
vt 0.328781 0.750638
vt 0.730036 0.444024
vt 0.653781 0.409369
vt 0.927587 0.065225
vt 0.882702 0.019564
vt 0.702333 0.905746
vt 0.697624 0.890469
vt 0.749689 0.868287
vt 0.398972 0.873762
vt 0.080462 0.913085
vt 0.065984 0.630499
vt 0.032299 0.579521
vt 0.091630 0.564017
vt 0.924423 0.727877
vt 0.074736 0.514655
vt 0.494355 0.926819
vt 0.523712 0.987306
vt 0.479116 0.987306
vt 0.220437 0.793637
vt 0.256835 0.799964
vt 0.185108 0.843583
vt 0.051710 0.660693
vt 0.020591 0.680711
vt 0.022758 0.627809
vt 0.260587 0.858876
vt 0.260587 0.753873
vt 0.087564 0.683279
vt 0.045451 0.722580
vt 0.113009 0.618926
vt 0.231245 0.878957
vt 0.947749 0.156485
vt 0.984052 0.100009
vt 0.984052 0.187612
vt 0.895316 0.387102
vt 0.862844 0.321182
vt 0.920853 0.277123
vt 0.566469 0.862040
vt 0.545556 0.747760
vt 0.643492 0.807217
vt 0.597168 0.737228
vt 0.626066 0.852475
vt 0.680755 0.842194
vt 0.660005 0.765752
vt 0.702146 0.787836
vt 0.678194 0.912929
vt 0.709649 0.047318
vt 0.729286 0.128190
vt 0.677032 0.128330
vt 0.642508 0.025283
vt 0.630404 0.064524
vt 0.599350 0.912929
vt 0.346189 0.517814
vt 0.387663 0.513662
vt 0.365593 0.568017
vt 0.296272 0.580532
vt 0.354624 0.633921
vt 0.920853 0.449121
vt 0.842107 0.432753
vt 0.865967 0.379247
vt 0.804271 0.344954
vt 0.829960 0.281952
vt 0.390497 0.722974
vt 0.448101 0.679403
vt 0.472593 0.741560
vt 0.761656 0.254259
vt 0.430678 0.884823
vt 0.415607 0.810476
vt 0.469289 0.847277
vt 0.603518 0.580808
vt 0.676809 0.617769
vt 0.612290 0.657198
vt 0.675232 0.585983
vt 0.687526 0.643580
vt 0.667795 0.683517
vt 0.729286 0.190621
vt 0.665243 0.135329
vt 0.692071 0.252353
vt 0.662359 0.219712
vt 0.592913 0.210032
vt 0.586492 0.131718
vt 0.575252 0.094952
vt 0.564783 0.165615
vt 0.442137 0.514542
vt 0.508659 0.519338
vt 0.474535 0.560874
vt 0.435074 0.582694
vt 0.372812 0.633728
vt 0.456715 0.641039
vt 0.326307 0.693602
vt 0.327487 0.663136
vt 0.327487 0.744052
vt 0.585993 0.509938
vt 0.672587 0.532012
vt 0.578436 0.700593
vt 0.547998 0.656599
vt 0.573518 0.628419
vt 0.517916 0.907735
vt 0.478589 0.838531
vt 0.489762 0.842218
vt 0.517916 0.777385
vt 0.590625 0.028861
vt 0.830007 0.422039
vt 0.846871 0.637077
vt 0.799778 0.599536
vt 0.845753 0.558999
vt 0.729003 0.700593
vt 0.788172 0.513139
vt 0.995343 0.007604
vt 0.995343 0.083645
vt 0.948775 0.050947
vt 0.821053 0.670884
vt 0.800042 0.704064
vt 0.760656 0.646972
vt 0.602479 0.198293
vt 0.626253 0.278113
vt 0.876721 0.680664
vt 0.896185 0.711041
vt 0.833940 0.735803
vt 0.896185 0.607118
vt 0.508659 0.670050
vt 0.502732 0.589596
vt 0.469289 0.775302
vt 0.891494 0.516065
vn 0.0118 0.0822 0.9965
vn -0.0573 0.1113 0.9921
vn 0.0105 0.1062 0.9943
vn 0.9947 0.1025 0.0036
vn 0.9947 0.1026 0.0037
vn 0.9947 0.1028 0.0039
vn -0.0186 0.1523 -0.9882
vn -0.0386 0.1367 -0.9899
vn -0.0698 0.1123 -0.9912
vn -0.9918 0.1275 -0.0099
vn -0.9918 0.1272 -0.0102
vn -0.7451 -0.2083 0.6336
vn 0.6808 0.1308 0.7207
vn -0.6930 -0.1538 0.7043
vn 0.7017 0.1206 0.7022
vn 0.6757 0.2805 -0.6817
vn -0.7225 -0.0068 -0.6913
vn 0.5478 0.3129 -0.7759
vn -0.7175 -0.0256 -0.6961
vn 0.6321 0.0179 0.7747
vn 0.6478 0.0759 -0.7580
vn -0.5755 -0.2163 -0.7887
vn 0.6667 -0.1652 0.7268
vn -0.5748 0.3036 0.7599
vn -0.0935 0.3873 0.9172
vn 0.6703 -0.2108 -0.7115
vn 0.7595 -0.2630 0.5949
vn -0.5658 0.2237 -0.7936
vn 0.7311 -0.3107 -0.6074
vn -0.0546 0.3759 -0.9251
vn -0.5625 -0.2273 0.7949
vn 0.4815 0.5523 0.6805
vn -0.5457 -0.4268 -0.7211
vn 0.5030 0.5015 -0.7039
vn -0.5789 -0.4046 0.7079
vn -0.5020 -0.3785 0.7776
vn -0.5020 -0.3785 -0.7776
vn 0.5857 0.4480 -0.6754
vn 0.5858 0.4481 0.6753
vn -0.0429 0.0795 0.9959
vn 0.9947 0.1024 0.0034
vn 0.0131 0.1767 -0.9842
vn -0.9918 0.1278 -0.0096
vn -0.1654 0.9859 0.0258
vn -0.7209 0.5764 -0.3847
vn -0.1310 0.9529 0.2734
vn -0.8635 0.3567 -0.3566
vn -0.6051 0.7714 0.1972
vn -0.1629 0.6336 0.7563
vn 0.3647 0.9308 0.0271
vn 0.0274 0.8777 0.4785
vn 0.4061 0.7870 0.4644
vn 0.6919 0.3677 -0.6213
vn 0.9056 0.0408 0.4222
vn 0.8462 0.0697 -0.5283
vn -0.1290 0.6683 -0.7327
vn 0.2405 -0.0895 -0.9665
vn -0.7129 -0.1247 -0.6901
vn -0.8097 0.3649 -0.4597
vn -0.8977 -0.0227 -0.4400
vn -0.9510 0.2115 0.2254
vn -0.4822 -0.6846 -0.5466
vn -0.7968 -0.4539 0.3988
vn -0.7454 -0.5566 0.3669
vn -0.4639 0.6517 0.6001
vn 0.0195 0.4637 0.8858
vn -0.5295 -0.0294 0.8478
vn 0.3435 -0.1388 0.9289
vn 0.5966 0.3677 0.7134
vn 0.7958 -0.2703 0.5420
vn 0.7265 -0.3309 0.6022
vn 0.4747 -0.8285 0.2969
vn 0.9927 0.0661 -0.1007
vn 0.7653 -0.1275 -0.6309
vn 0.7968 -0.5915 -0.1238
vn 0.1445 -0.7553 -0.6392
vn -0.0475 -0.5697 -0.8205
vn -0.6764 -0.4632 -0.5727
vn -0.3067 -0.7301 -0.6107
vn 0.1900 -0.9818 0.0053
vn 0.1291 -0.8530 0.5057
vn -0.5162 -0.7546 0.4051
vn 0.2177 -0.9501 0.2236
vn 0.0671 -0.9690 -0.2378
vn -0.2944 -0.9395 -0.1754
vn 0.0716 0.5079 -0.8584
vn -0.6141 0.0969 -0.7832
vn 0.1309 0.6981 -0.7039
vn -0.7984 0.0542 -0.5998
vn -0.3781 0.6595 -0.6497
vn 0.0924 0.9761 -0.1966
vn 0.5697 0.3618 -0.7380
vn 0.2941 0.8040 -0.5169
vn 0.6361 0.6634 -0.3941
vn 0.6666 -0.5274 -0.5268
vn 0.9395 0.1730 0.2956
vn 0.7592 -0.6182 -0.2036
vn -0.0702 -0.2974 -0.9522
vn 0.0792 -0.9279 -0.3643
vn -0.8098 -0.4861 -0.3285
vn -0.7586 -0.0432 -0.6501
vn -0.9302 -0.1820 -0.3188
vn -0.8367 0.5093 -0.2012
vn -0.6971 -0.6700 0.2552
vn -0.8179 0.3209 0.4775
vn -0.7964 0.2350 0.5573
vn -0.2147 0.9193 -0.3298
vn 0.2466 0.9684 0.0381
vn -0.4012 0.8384 0.3690
vn 0.4257 0.6572 0.6220
vn 0.7569 0.6433 0.1149
vn 0.7783 0.1602 0.6071
vn 0.7058 0.2005 0.6794
vn 0.3068 -0.2301 0.9235
vn 0.9579 -0.2856 0.0293
vn 0.6218 -0.7774 -0.0953
vn 0.6143 -0.5588 0.5571
vn -0.1222 -0.9264 0.3562
vn -0.2892 -0.9538 0.0813
vn -0.8366 -0.5472 0.0253
vn -0.5472 -0.7863 0.2869
vn -0.0426 -0.4849 0.8735
vn -0.0033 0.0182 0.9998
vn -0.6161 0.1251 0.7777
vn 0.0212 -0.2891 0.9571
vn -0.1913 -0.6601 0.7264
vn -0.5242 -0.5096 0.6823
s 1
f 2/1/1 4/2/2 1/3/3
f 2/4/4 6/5/5 3/6/6
f 5/7/7 8/8/8 6/9/9
f 1/10/10 8/11/10 7/12/11
f 4/2/12 9/13/13 10/14/14
f 3/6/15 11/15/16 9/16/13
f 8/8/17 11/17/16 6/9/18
f 4/18/12 12/19/19 8/11/17
f 13/20/20 10/14/14 9/13/13
f 15/21/21 9/16/13 11/15/16
f 12/22/19 15/23/21 11/17/16
f 10/24/14 16/25/22 12/19/19
f 18/26/23 20/27/24 17/28/25
f 21/29/26 19/30/27 18/31/23
f 21/32/26 24/33/28 22/34/29
f 23/35/30 20/36/24 24/37/28
f 13/20/20 17/28/25 14/38/31
f 18/31/23 15/21/21 21/29/26
f 23/39/30 15/23/21 16/40/22
f 23/41/30 26/42/32 17/43/25
f 23/39/30 27/44/33 25/45/34
f 16/46/22 28/47/35 27/48/33
f 17/28/25 28/49/35 14/38/31
f 29/50/36 25/51/34 30/52/37
f 27/44/33 30/53/37 25/45/34
f 31/54/38 28/47/35 32/55/39
f 28/49/35 29/56/36 32/57/39
f 2/1/1 3/58/40 4/2/2
f 2/4/4 5/59/41 6/5/5
f 5/7/7 7/60/42 8/8/8
f 1/10/10 4/18/43 8/11/10
f 4/2/12 3/58/15 9/13/13
f 3/6/15 6/5/18 11/15/16
f 8/8/17 12/22/19 11/17/16
f 4/18/12 10/24/14 12/19/19
f 13/20/20 14/38/31 10/14/14
f 15/21/21 13/61/20 9/16/13
f 12/22/19 16/40/22 15/23/21
f 10/24/14 14/62/31 16/25/22
f 18/26/23 19/63/27 20/27/24
f 21/29/26 22/64/29 19/30/27
f 21/32/26 23/39/30 24/33/28
f 23/35/30 17/65/25 20/36/24
f 13/20/20 18/26/23 17/28/25
f 18/31/23 13/61/20 15/21/21
f 23/39/30 21/32/26 15/23/21
f 23/41/30 25/66/34 26/42/32
f 23/39/30 16/40/22 27/44/33
f 16/46/22 14/67/31 28/47/35
f 17/28/25 26/68/32 28/49/35
f 29/50/36 26/69/32 25/51/34
f 27/44/33 31/70/38 30/53/37
f 31/54/38 27/48/33 28/47/35
f 28/49/35 26/68/32 29/56/36
f 33/71/44 34/72/45 35/73/46
f 34/74/45 36/75/47 37/76/48
f 34/72/45 37/77/48 35/73/46
f 35/73/46 37/77/48 38/78/49
f 33/71/44 35/73/46 39/79/50
f 35/73/46 38/78/49 40/80/51
f 35/73/46 40/80/51 39/79/50
f 39/79/50 40/80/51 41/81/52
f 33/82/44 39/83/50 42/84/53
f 39/79/50 41/81/52 43/85/54
f 39/86/50 43/87/54 42/88/53
f 42/88/53 43/87/54 44/89/55
f 33/71/44 42/90/53 45/91/56
f 42/92/53 44/93/55 46/94/57
f 42/92/53 46/94/57 45/95/56
f 45/95/56 46/94/57 47/96/58
f 33/71/44 45/91/56 34/72/45
f 45/97/56 47/98/58 48/99/59
f 45/97/56 48/99/59 34/74/45
f 34/74/45 48/99/59 36/75/47
f 36/75/47 49/100/60 50/101/61
f 49/102/60 51/103/62 52/104/63
f 49/100/60 52/105/63 50/101/61
f 50/106/61 52/107/63 53/108/64
f 38/109/49 54/110/65 55/111/66
f 54/112/65 53/113/64 56/114/67
f 54/112/65 56/114/67 55/115/66
f 55/116/66 56/117/67 57/118/68
f 41/119/52 58/120/69 59/121/70
f 58/122/69 57/118/68 60/123/71
f 58/120/69 60/124/71 59/121/70
f 59/121/70 60/124/71 61/125/72
f 44/89/55 62/126/73 63/127/74
f 62/126/73 61/125/72 64/128/75
f 62/126/73 64/128/75 63/127/74
f 63/129/74 64/130/75 65/131/76
f 47/132/58 66/133/77 67/134/78
f 66/133/77 65/135/76 68/136/79
f 66/133/77 68/136/79 67/134/78
f 67/134/78 68/136/79 51/103/62
f 53/137/64 54/138/65 50/139/61
f 54/110/65 38/109/49 37/140/48
f 54/110/65 37/140/48 50/141/61
f 50/101/61 37/76/48 36/75/47
f 57/118/68 58/122/69 55/116/66
f 58/142/69 41/81/52 40/80/51
f 58/142/69 40/80/51 55/143/66
f 55/143/66 40/80/51 38/78/49
f 61/125/72 62/126/73 59/121/70
f 62/126/73 44/89/55 43/87/54
f 62/126/73 43/87/54 59/121/70
f 59/144/70 43/145/54 41/146/52
f 65/131/76 66/147/77 63/129/74
f 66/147/77 47/96/58 46/94/57
f 66/147/77 46/94/57 63/129/74
f 63/129/74 46/94/57 44/93/55
f 51/103/62 49/102/60 67/134/78
f 49/100/60 36/75/47 48/99/59
f 49/100/60 48/99/59 67/148/78
f 67/148/78 48/99/59 47/98/58
f 69/149/80 70/150/81 71/151/82
f 70/152/81 57/118/68 56/117/67
f 70/150/81 56/153/67 71/151/82
f 71/154/82 56/155/67 53/156/64
f 69/157/80 72/158/83 70/159/81
f 72/160/83 61/161/72 60/162/71
f 72/158/83 60/163/71 70/159/81
f 70/152/81 60/123/71 57/118/68
f 69/157/80 73/164/84 72/158/83
f 73/165/84 65/135/76 64/166/75
f 73/165/84 64/166/75 72/160/83
f 72/160/83 64/166/75 61/161/72
f 69/149/80 74/167/85 73/165/84
f 74/167/85 51/103/62 68/136/79
f 74/167/85 68/136/79 73/165/84
f 73/165/84 68/136/79 65/135/76
f 69/149/80 71/151/82 74/167/85
f 71/168/82 53/108/64 52/107/63
f 71/151/82 52/104/63 74/167/85
f 74/167/85 52/104/63 51/103/62
f 75/169/86 76/170/87 77/171/88
f 76/172/87 78/173/89 79/174/90
f 76/175/87 79/176/90 77/177/88
f 77/177/88 79/176/90 80/178/91
f 75/179/86 77/177/88 81/180/92
f 77/177/88 80/178/91 82/181/93
f 77/177/88 82/181/93 81/180/92
f 81/180/92 82/181/93 83/182/94
f 75/179/86 81/180/92 84/183/95
f 81/184/92 83/185/94 85/186/96
f 81/184/92 85/186/96 84/187/95
f 84/187/95 85/186/96 86/188/97
f 75/179/86 84/183/95 87/189/98
f 84/190/95 86/191/97 88/192/99
f 84/190/95 88/192/99 87/193/98
f 87/193/98 88/192/99 89/194/100
f 75/179/86 87/189/98 76/175/87
f 87/195/98 89/196/100 90/197/101
f 87/195/98 90/197/101 76/172/87
f 76/172/87 90/197/101 78/173/89
f 78/173/89 91/198/102 92/199/103
f 91/200/102 93/201/104 94/202/105
f 91/198/102 94/203/105 92/199/103
f 92/204/103 94/205/105 95/206/106
f 80/207/91 96/208/107 97/209/108
f 96/208/107 95/210/106 98/211/109
f 96/208/107 98/211/109 97/209/108
f 97/209/108 98/211/109 99/212/110
f 83/185/94 100/213/111 101/214/112
f 100/213/111 99/215/110 102/216/113
f 100/213/111 102/216/113 101/214/112
f 101/214/112 102/216/113 103/217/114
f 86/188/97 104/218/115 105/219/116
f 104/218/115 103/217/114 106/220/117
f 104/218/115 106/220/117 105/219/116
f 105/221/116 106/222/117 107/223/118
f 89/194/100 108/224/119 109/225/120
f 108/224/119 107/223/118 110/226/121
f 108/224/119 110/226/121 109/225/120
f 109/225/120 110/226/121 93/201/104
f 95/227/106 96/228/107 92/229/103
f 96/208/107 80/207/91 79/230/90
f 96/208/107 79/230/90 92/231/103
f 92/199/103 79/174/90 78/173/89
f 99/212/110 100/232/111 97/209/108
f 100/232/111 83/233/94 82/234/93
f 100/232/111 82/234/93 97/209/108
f 97/209/108 82/234/93 80/207/91
f 103/217/114 104/218/115 101/214/112
f 104/218/115 86/188/97 85/186/96
f 104/235/115 85/236/96 101/237/112
f 101/237/112 85/236/96 83/238/94
f 107/223/118 108/224/119 105/221/116
f 108/224/119 89/194/100 88/192/99
f 108/224/119 88/192/99 105/221/116
f 105/219/116 88/239/99 86/188/97
f 93/201/104 91/200/102 109/225/120
f 91/198/102 78/173/89 90/197/101
f 91/198/102 90/197/101 109/240/120
f 109/240/120 90/197/101 89/196/100
f 111/241/122 112/242/123 113/243/124
f 112/244/123 99/212/110 98/211/109
f 112/242/123 98/245/109 113/243/124
f 113/246/124 98/247/109 95/248/106
f 111/241/122 114/249/125 112/242/123
f 114/249/125 103/250/114 102/251/113
f 114/252/125 102/216/113 112/253/123
f 112/253/123 102/216/113 99/215/110
f 111/241/122 115/254/126 114/249/125
f 115/254/126 107/255/118 106/256/117
f 115/254/126 106/256/117 114/249/125
f 114/249/125 106/256/117 103/250/114
f 111/241/122 116/257/127 115/254/126
f 116/258/127 93/201/104 110/226/121
f 116/258/127 110/226/121 115/259/126
f 115/259/126 110/226/121 107/223/118
f 111/241/122 113/243/124 116/257/127
f 113/260/124 95/206/106 94/205/105
f 113/243/124 94/261/105 116/257/127
f 116/258/127 94/202/105 93/201/104
